<?xml version="1.0" encoding="UTF-8" standalone="no"?>
<!DOCTYPE svg PUBLIC "-//W3C//DTD SVG 1.1//EN" "http://www.w3.org/Graphics/SVG/1.1/DTD/svg11.dtd">
<svg width="100%" height="100%" viewBox="0 0 20 18" version="1.1" xmlns="http://www.w3.org/2000/svg" xmlns:xlink="http://www.w3.org/1999/xlink" xml:space="preserve" xmlns:serif="http://www.serif.com/" style="fill-rule:evenodd;clip-rule:evenodd;stroke-linejoin:round;stroke-miterlimit:2;">
    <g transform="matrix(1,0,0,1,-14377.7,-637.681)">
        <g transform="matrix(1,0,0,1,13669.7,12.8219)">
            <g transform="matrix(0.22222,0,0,0.22222,707.955,624.3)">
                <path d="M44.999,39.738C36.332,39.738 29.284,46.794 29.284,55.467C29.284,64.132 36.332,71.182 44.999,71.182C53.657,71.182 60.714,64.132 60.714,55.467C60.714,46.794 53.657,39.738 44.999,39.738M44.999,66.005C39.185,66.005 34.456,61.281 34.456,55.468C34.456,49.647 39.185,44.923 44.999,44.923C50.812,44.923 55.541,49.647 55.541,55.468C55.541,61.281 50.812,66.005 44.999,66.005" style="fill:white;fill-rule:nonzero;"/>
                <path d="M85.023,29.196L59.2,29.196L59.2,27.416C59.2,24.662 56.965,22.427 54.217,22.427L35.599,22.427C32.851,22.427 30.616,24.662 30.616,27.416L30.616,29.196L4.976,29.196C2.234,29.196 0,31.43 0,34.178L0,77.996C0,80.73 2.234,82.973 4.976,82.973L85.023,82.973C87.758,82.973 90.001,80.731 90.001,77.996L90.001,34.178C90,31.43 87.759,29.196 85.023,29.196M83.802,76.781L6.19,76.781L6.19,35.386L31.837,35.386C34.579,35.386 36.814,33.151 36.814,30.41L36.814,28.62L53.009,28.62L53.009,30.41C53.009,33.151 55.243,35.386 57.985,35.386L83.802,35.386L83.802,76.781Z" style="fill:white;fill-rule:nonzero;"/>
                <path d="M35.45,17.69L28.726,6.056L23.36,9.142L30.09,20.789L35.45,17.69Z" style="fill:white;fill-rule:nonzero;"/>
                <path d="M59.908,20.783L66.633,9.135L61.266,6.043L54.549,17.684L59.908,20.783Z" style="fill:white;fill-rule:nonzero;"/>
                <path d="M48.098,15.956L48.092,2.516L41.9,2.516L41.9,15.956L48.098,15.956Z" style="fill:white;fill-rule:nonzero;"/>
            </g>
        </g>
    </g>
</svg>
