<?xml version="1.0" encoding="UTF-8" standalone="no"?>
<!DOCTYPE svg PUBLIC "-//W3C//DTD SVG 1.1//EN" "http://www.w3.org/Graphics/SVG/1.1/DTD/svg11.dtd">
<svg width="100%" height="100%" viewBox="0 0 23 23" version="1.1" xmlns="http://www.w3.org/2000/svg" xmlns:xlink="http://www.w3.org/1999/xlink" xml:space="preserve" xmlns:serif="http://www.serif.com/" style="fill-rule:evenodd;clip-rule:evenodd;stroke-linecap:round;stroke-linejoin:round;stroke-miterlimit:1.5;">
    <g transform="matrix(1,0,0,1,-2279.49,-514.538)">
        <g transform="matrix(1,0,0,1.06742,1300.97,1.23314)">
            <g transform="matrix(0.351064,0,0,0.322039,310.886,511.583)">
                <ellipse cx="1934.48" cy="-61.892" rx="31.333" ry="32" style="fill:none;stroke:white;stroke-width:2.83px;"/>
            </g>
            <g transform="matrix(0.885361,0,0,0.885361,113.494,56.3623)">
                <g transform="matrix(-0.644073,0.661734,-0.528155,-0.451175,2854.19,-950.067)">
                    <path d="M2510.67,476.451C2510.67,475.943 2510.36,475.531 2509.98,475.531L2497.22,475.531C2496.84,475.531 2496.53,475.943 2496.53,476.451L2496.53,476.611C2496.53,477.119 2496.84,477.531 2497.22,477.531L2509.98,477.531C2510.36,477.531 2510.67,477.119 2510.67,476.611L2510.67,476.451Z" style="fill:white;"/>
                </g>
                <g transform="matrix(-0.644073,-0.661734,-0.528155,0.451175,2854.19,1933.37)">
                    <path d="M2510.67,476.451C2510.67,475.943 2510.36,475.531 2509.98,475.531L2497.22,475.531C2496.84,475.531 2496.53,475.943 2496.53,476.451L2496.53,476.611C2496.53,477.119 2496.84,477.531 2497.22,477.531L2509.98,477.531C2510.36,477.531 2510.67,477.119 2510.67,476.611L2510.67,476.451Z" style="fill:white;"/>
                </g>
            </g>
        </g>
    </g>
</svg>
