<?xml version="1.0" encoding="UTF-8" standalone="no"?>
<!DOCTYPE svg PUBLIC "-//W3C//DTD SVG 1.1//EN" "http://www.w3.org/Graphics/SVG/1.1/DTD/svg11.dtd">
<svg width="100%" height="100%" viewBox="0 0 21 21" version="1.1" xmlns="http://www.w3.org/2000/svg" xmlns:xlink="http://www.w3.org/1999/xlink" xml:space="preserve" xmlns:serif="http://www.serif.com/" style="fill-rule:evenodd;clip-rule:evenodd;stroke-linejoin:round;stroke-miterlimit:2;">
    <g transform="matrix(1,0,0,1,-1643.19,-231.863)">
        <g transform="matrix(1,0,0,1.06742,1300.97,1.23314)">
            <g transform="matrix(1,0,0,1,1,0)">
                <g transform="matrix(1.33333,0,0,1.33333,-113.811,-72.0856)">
                    <g>
                        <g transform="matrix(0.340909,0,0,0.319378,341.434,216.257)">
                            <path d="M22,0C9.869,0 0,9.869 0,22C0,34.131 9.869,44 22,44C34.131,44 44,34.131 44,22C44,9.869 34.131,0 22,0ZM22,42C10.972,42 2,33.028 2,22C2,10.972 10.972,2 22,2C33.028,2 42,10.972 42,22C42,33.028 33.028,42 22,42Z" style="fill:rgb(94,96,151);fill-rule:nonzero;stroke:rgb(94,96,151);stroke-width:0.91px;"/>
                        </g>
                        <g transform="matrix(1,0,0,1,-0.209817,0)">
                            <g transform="matrix(0.285714,0,0,0.267669,342.758,218.375)">
                                <circle cx="13.5" cy="14.5" r="3.5" style="fill:rgb(94,96,151);"/>
                            </g>
                            <g transform="matrix(0.285714,0,0,0.267669,347.814,218.375)">
                                <circle cx="13.5" cy="14.5" r="3.5" style="fill:rgb(94,96,151);"/>
                            </g>
                        </g>
                    </g>
                </g>
                <g transform="matrix(0.866014,0,0,0.811318,-1079.57,29.598)">
                    <path d="M1657.6,245C1656.56,246.793 1654.62,248 1652.4,248C1650.18,248 1648.24,246.793 1647.2,245" style="fill:none;stroke:rgb(89,91,148);stroke-width:1.38px;stroke-linecap:round;stroke-miterlimit:1.5;"/>
                </g>
            </g>
        </g>
    </g>
</svg>
