<?xml version="1.0" encoding="utf-8"?>
<!-- Generator: Adobe Illustrator 19.0.0, SVG Export Plug-In . SVG Version: 6.00 Build 0)  -->
<svg version="1.1" id="Layer_1" xmlns="http://www.w3.org/2000/svg" xmlns:xlink="http://www.w3.org/1999/xlink" x="0px" y="0px"
	 viewBox="0 0 23 23" style="enable-background:new 0 0 23 23;" xml:space="preserve">
<style type="text/css">
	.st0{fill:#6F9EB0;}
	.st1{font-family:'OpenSans-Bold';}
	.st2{font-size:12.3776px;}
</style>
<text id="XMLID_7_" transform="matrix(1 0 0 1 8.0011 16.3021)" class="st0 st1 st2">X</text>
<g id="XMLID_2_">
	<path id="XMLID_3_" class="st0" d="M12,1C5.9,1,1,5.9,1,12c0,6.1,4.9,11,11,11c6.1,0,11-4.9,11-11C23,5.9,18.1,1,12,1L12,1z
		 M12,22.2C6.4,22.2,1.8,17.6,1.8,12C1.8,6.4,6.4,1.8,12,1.8c5.6,0,10.2,4.6,10.2,10.2C22.2,17.6,17.6,22.2,12,22.2L12,22.2z
		 M12,22.2"/>
</g>
</svg>
