<?xml version="1.0" encoding="UTF-8" standalone="no"?>
<!DOCTYPE svg PUBLIC "-//W3C//DTD SVG 1.1//EN" "http://www.w3.org/Graphics/SVG/1.1/DTD/svg11.dtd">
<svg width="100%" height="100%" viewBox="0 0 20 20" version="1.1" xmlns="http://www.w3.org/2000/svg" xmlns:xlink="http://www.w3.org/1999/xlink" xml:space="preserve" xmlns:serif="http://www.serif.com/" style="fill-rule:evenodd;clip-rule:evenodd;stroke-linejoin:round;stroke-miterlimit:2;">
    <g transform="matrix(1,0,0,1,-503.03,-327.177)">
        <g id="user-cir" serif:id="user cir">
        </g>
        <g id="lock3" transform="matrix(0.208333,0,0,0.196078,502.614,327.373)">
            <rect x="2" y="-1" width="96" height="102" style="fill:none;"/>
            <g>
                <g transform="matrix(4.14482,0,0,4.44275,-2167.6,-1448.97)">
                    <path d="M540.168,331.254L541.674,332.984L533.834,340.964L532.132,339.346L540.168,331.254Z" style="fill:rgb(130,185,5);"/>
                </g>
                <g transform="matrix(2.54445e-16,-4.41511,4.12364,2.68281e-16,-1337.2,2433.78)">
                    <path d="M540.271,331.149L541.804,332.592L537.93,336.784L536.332,335.192L540.271,331.149Z" style="fill:rgb(130,185,1);"/>
                </g>
                <g transform="matrix(4.8,0,0,5.1,-2522.95,-1667.56)">
                    <path d="M543.27,332.717C543.945,333.918 544.33,335.302 544.33,336.777C544.33,341.357 540.611,345.077 536.03,345.077C531.449,345.077 527.73,341.357 527.73,336.777C527.73,332.196 531.449,328.477 536.03,328.477C538.806,328.477 541.265,329.842 542.772,331.937L541.479,333.232C540.318,331.453 538.31,330.277 536.03,330.277C532.443,330.277 529.53,333.189 529.53,336.777C529.53,340.364 532.443,343.277 536.03,343.277C539.618,343.277 542.53,340.364 542.53,336.777C542.53,335.805 542.317,334.883 541.934,334.055L543.27,332.717Z" style="fill:rgb(130,185,1);"/>
                </g>
            </g>
        </g>
    </g>
</svg>
