<?xml version="1.0" encoding="UTF-8" standalone="no"?>
<!DOCTYPE svg PUBLIC "-//W3C//DTD SVG 1.1//EN" "http://www.w3.org/Graphics/SVG/1.1/DTD/svg11.dtd">
<svg width="100%" height="100%" viewBox="0 0 22 22" version="1.1" xmlns="http://www.w3.org/2000/svg" xmlns:xlink="http://www.w3.org/1999/xlink" xml:space="preserve" xmlns:serif="http://www.serif.com/" style="fill-rule:evenodd;clip-rule:evenodd;stroke-linejoin:round;stroke-miterlimit:2;">
    <g transform="matrix(1,0,0,1,-24.1664,-8.32667e-17)">
        <g id="mic-22by22-Mouseover" serif:id="mic 22by22 Mouseover" transform="matrix(0.229167,0,0,0.215686,23.7081,0.215686)">
            <rect x="2" y="-1" width="96" height="102" style="fill:none;"/>
            <g transform="matrix(0.143185,0.126056,-0.123808,0.15876,47.4975,-15.5223)">
                <path d="M320,106.667L320,352C320,399.147 281.813,437.333 234.667,437.333C187.521,437.333 149.333,399.147 149.333,352L149.333,85.333C149.333,55.893 173.226,32 202.666,32C232.106,32 256,55.893 256,85.333L256,309.333C256,321.066 246.507,330.666 234.667,330.666C222.827,330.666 213.334,321.066 213.334,309.333L213.334,106.667L181.334,106.667L181.334,309.334C181.334,338.774 205.227,362.667 234.667,362.667C264.107,362.667 288,338.773 288,309.333L288,85.333C288,38.187 249.813,0 202.667,0C155.521,0 117.334,38.187 117.334,85.333L117.334,352C117.334,416.853 169.921,469.333 234.667,469.333C299.413,469.333 352,416.853 352,352L352,106.667L320,106.667Z" style="fill:rgb(94,96,151);fill-rule:nonzero;"/>
            </g>
        </g>
    </g>
</svg>
