<?xml version="1.0" encoding="UTF-8" standalone="no"?>
<!DOCTYPE svg PUBLIC "-//W3C//DTD SVG 1.1//EN" "http://www.w3.org/Graphics/SVG/1.1/DTD/svg11.dtd">
<svg width="100%" height="100%" viewBox="0 0 18 18" version="1.1" xmlns="http://www.w3.org/2000/svg" xmlns:xlink="http://www.w3.org/1999/xlink" xml:space="preserve" xmlns:serif="http://www.serif.com/" style="fill-rule:evenodd;clip-rule:evenodd;stroke-linejoin:round;stroke-miterlimit:2;">
    <g transform="matrix(1,0,0,1,-116.74,-230.011)">
        <g id="Artboard1" transform="matrix(0.514286,0,0,0.473684,175.883,144.274)">
            <rect x="-115" y="181" width="35" height="38" style="fill:none;"/>
            <g transform="matrix(1.94444,0,0,3.28484,-469.455,-1206.42)">
                <g transform="matrix(0.7,0,0,0.449878,-1847.11,125.836)">
                    <circle cx="2912" cy="672" r="10" style="fill:rgb(89,91,148);"/>
                </g>
                <g transform="matrix(0.116138,1.89401e-17,-3.88918e-17,0.105726,187.851,426.811)">
                    <path d="M55.4,10.8L33.1,33C31.3,35 28.1,35 26.2,33L4.1,10.8C2,8.8 1.5,6.2 3.6,4.2L4.4,3.4C6.2,1.7 8.2,1.3 9.9,3.1C15.3,8.6 20.7,14.1 26.2,19.6C28.1,21.4 31.2,21.4 33.1,19.6C38.6,14.1 44.1,8.6 49.6,3.1C51.1,1.4 53.2,1.7 54.9,3.4L55.7,4.2C57.7,6.2 57.2,8.9 55.4,10.8Z" style="fill:white;"/>
                </g>
            </g>
        </g>
    </g>
</svg>
