<?xml version="1.0" encoding="utf-8"?>
<!-- Generator: Adobe Illustrator 19.0.0, SVG Export Plug-In . SVG Version: 6.00 Build 0)  -->
<svg version="1.1" id="Layer_1" xmlns="http://www.w3.org/2000/svg" xmlns:xlink="http://www.w3.org/1999/xlink" x="0px" y="0px"
	 viewBox="0 0 22 22" style="enable-background:new 0 0 22 22;" xml:space="preserve">
<style type="text/css">
	.st0{fill-rule:evenodd;clip-rule:evenodd;fill:#52808E;}
</style>
<g id="XMLID_2_">
	<path id="XMLID_3_" class="st0" d="M10.9,6.1C8.2,6.1,6,8.3,6,11c0,2.7,2.2,4.8,4.8,4.8c2.7,0,4.8-2.2,4.8-4.8
		C15.7,8.3,13.6,6.1,10.9,6.1L10.9,6.1z M10.9,15.2c-2.3,0-4.2-1.9-4.2-4.2c0-2.3,1.9-4.2,4.2-4.2c2.3,0,4.2,1.9,4.2,4.2
		C15.1,13.3,13.2,15.2,10.9,15.2L10.9,15.2z M12.7,10.7h-1.5V9.1c0-0.2-0.1-0.3-0.3-0.3c-0.2,0-0.3,0.1-0.3,0.3v1.5H9.1
		c-0.2,0-0.3,0.1-0.3,0.3c0,0.2,0.1,0.3,0.3,0.3h1.5v1.5c0,0.2,0.1,0.3,0.3,0.3c0.2,0,0.3-0.1,0.3-0.3v-1.5h1.5
		c0.2,0,0.3-0.1,0.3-0.3C13,10.8,12.9,10.7,12.7,10.7L12.7,10.7z M12.7,10.7"/>
</g>
</svg>
