<?xml version="1.0" encoding="utf-8"?>
<!-- Generator: Adobe Illustrator 19.0.0, SVG Export Plug-In . SVG Version: 6.00 Build 0)  -->
<svg version="1.1" id="Layer_1" xmlns="http://www.w3.org/2000/svg" xmlns:xlink="http://www.w3.org/1999/xlink" x="0px" y="0px"
	 viewBox="0 0 23 23" style="enable-background:new 0 0 23 23;" xml:space="preserve">
<style type="text/css">
	.st0{fill:#6F9EB0;}
</style>
<g>
	<path class="st0" d="M11.1,1C5,1,0.1,5.9,0.1,12c0,6.1,4.9,11,11,11c6.1,0,11-4.9,11-11C22.1,5.9,17.1,1,11.1,1L11.1,1z M11.1,22.2
		C5.4,22.2,0.9,17.6,0.9,12c0-5.6,4.6-10.2,10.2-10.2c5.6,0,10.2,4.6,10.2,10.2C21.3,17.6,16.7,22.2,11.1,22.2L11.1,22.2z
		 M11.1,22.2"/>
</g>
<g>
	<circle id="XMLID_3_" class="st0" cx="6.6" cy="12" r="1.9"/>
	<circle id="XMLID_2_" class="st0" cx="11.1" cy="12" r="1.9"/>
	<circle id="XMLID_1_" class="st0" cx="15.5" cy="12" r="1.9"/>
</g>
</svg>
