<?xml version="1.0" encoding="utf-8"?>
<!-- Generator: Adobe Illustrator 19.0.0, SVG Export Plug-In . SVG Version: 6.00 Build 0)  -->
<svg version="1.1" id="Layer_1" xmlns="http://www.w3.org/2000/svg" xmlns:xlink="http://www.w3.org/1999/xlink" x="0px" y="0px"
	 viewBox="0 0 22 22" style="enable-background:new 0 0 22 22;" xml:space="preserve">
<style type="text/css">
	.st0{fill:#6F9EB0;}
</style>
<g id="XMLID_2_">
	<path id="XMLID_6_" class="st0" d="M10.9,5.8c-3,0-5.3,2.4-5.3,5.3c0,3,2.4,5.3,5.3,5.3c3,0,5.3-2.4,5.3-5.3
		C16.3,8.2,13.9,5.8,10.9,5.8L10.9,5.8z M10.9,15.8c-2.6,0-4.6-2.1-4.6-4.6c0-2.6,2.1-4.6,4.6-4.6c2.6,0,4.6,2.1,4.6,4.6
		C15.6,13.7,13.5,15.8,10.9,15.8L10.9,15.8z M10.9,15.8"/>
	<path id="XMLID_3_" class="st0" d="M13,10L10.9,12L8.8,10c-0.1-0.1-0.4-0.1-0.5,0c-0.1,0.1-0.1,0.4,0,0.5l2.3,2.3
		c0.1,0.1,0.2,0.1,0.3,0.1c0.1,0,0.2,0,0.3-0.1l2.3-2.3c0.1-0.1,0.1-0.4,0-0.5C13.3,9.8,13.1,9.8,13,10L13,10z M13,10"/>
</g>
</svg>
