<?xml version="1.0" encoding="utf-8"?>
<!-- Generator: Adobe Illustrator 19.0.0, SVG Export Plug-In . SVG Version: 6.00 Build 0)  -->
<svg version="1.1" id="Layer_1" xmlns="http://www.w3.org/2000/svg" xmlns:xlink="http://www.w3.org/1999/xlink" x="0px" y="0px"
	 viewBox="0 0 22 22" style="enable-background:new 0 0 22 22;" xml:space="preserve">
<style type="text/css">
	.st0{fill:#6F9EB0;}
</style>
<path id="XMLID_2_" class="st0" d="M18.2,3.3C18.2,3.3,18.2,3.2,18.2,3.3c0-0.1,0-0.1,0-0.2c0,0,0,0,0,0s0,0,0,0c0,0,0,0,0,0
	c0,0,0,0,0,0c0,0,0,0,0,0c0,0,0,0,0,0c0,0,0,0-0.1,0c0,0,0,0-0.1,0c0,0,0,0-0.1,0c0,0,0,0-0.1,0c0,0,0,0,0,0L2.9,9.5
	C2.7,9.5,2.7,9.8,2.7,9.9c0,0.1,0.1,0.1,0.2,0.2l5.5,2.6V18c0,0.2,0.2,0.3,0.3,0.3c0.1,0,0.2-0.1,0.3-0.2l2.3-3.9l3.6,1.9
	c0.2,0.1,0.4,0,0.5-0.1c0,0,0-0.1,0-0.1L18.2,3.3C18.2,3.4,18.2,3.3,18.2,3.3C18.2,3.3,18.2,3.3,18.2,3.3z M16.4,4.3l-7.7,7.8
	L3.9,9.8L16.4,4.3z M9.1,16.8v-3.7l1.7,0.9L9.1,16.8z M15,15.4l-3.2-1.7l0,0l-0.6-0.4l0,0l-1.8-1l8-8.1L15,15.4z"/>
</svg>
