<?xml version="1.0" encoding="utf-8"?>
<!-- Generator: Adobe Illustrator 19.0.0, SVG Export Plug-In . SVG Version: 6.00 Build 0)  -->
<svg version="1.1" id="Layer_1" xmlns="http://www.w3.org/2000/svg" xmlns:xlink="http://www.w3.org/1999/xlink" x="0px" y="0px"
	 viewBox="0 0 22 22" style="enable-background:new 0 0 22 22;" xml:space="preserve">
<style type="text/css">
	.st0{clip-path:url(#SVGID_2_);fill:#6F9EB0;}
	.st1{fill:#6F9EB0;}
</style>
<g>
	<g>
		<defs>
			<rect id="SVGID_1_" x="3.2" y="4.6" width="16.1" height="12.8"/>
		</defs>
		<clipPath id="SVGID_2_">
			<use xlink:href="#SVGID_1_"  style="overflow:visible;"/>
		</clipPath>
		<path class="st0" d="M19.3,17.1v-2.4c0-0.1-0.1-0.3-0.2-0.3h-1.8v-3.2c0-0.1-0.1-0.3-0.2-0.3h-5.6V8.3h2.5c0.1,0,0.2-0.1,0.2-0.3
			V4.9c0-0.1-0.1-0.3-0.2-0.3H8.5c-0.1,0-0.2,0.1-0.2,0.3v3.2c0,0.1,0.1,0.3,0.2,0.3H11V11H5.4c-0.1,0-0.2,0.1-0.2,0.3v3.2H3.4
			c-0.1,0-0.2,0.1-0.2,0.3v2.4c0,0.1,0.1,0.3,0.2,0.3h4.1c0.1,0,0.2-0.1,0.2-0.3v-2.4c0-0.1-0.1-0.3-0.2-0.3H5.6v-3H11v3H9.2
			c-0.1,0-0.2,0.1-0.2,0.3v2.4c0,0.1,0.1,0.3,0.2,0.3h4.1c0.1,0,0.2-0.1,0.2-0.3v-2.4c0-0.1-0.1-0.3-0.2-0.3h-1.8v-3h5.4v3H15
			c-0.1,0-0.2,0.1-0.2,0.3v2.4c0,0.1,0.1,0.3,0.2,0.3h4.1C19.2,17.4,19.3,17.2,19.3,17.1L19.3,17.1z M8.7,7.8V5.2h5v2.6H8.7z
			 M7.2,15v1.9H3.6V15H7.2z M13,15v1.9H9.4V15H13z M18.8,16.8h-3.6V15h3.6V16.8z M18.8,16.8"/>
	</g>
	<rect x="15" y="14.6" class="st1" width="4" height="2.5"/>
	<rect x="9.2" y="14.6" class="st1" width="4" height="2.5"/>
	<rect x="3.2" y="14.7" class="st1" width="4" height="2.5"/>
</g>
</svg>
