<?xml version="1.0" encoding="UTF-8" standalone="no"?>
<!DOCTYPE svg PUBLIC "-//W3C//DTD SVG 1.1//EN" "http://www.w3.org/Graphics/SVG/1.1/DTD/svg11.dtd">
<svg width="100%" height="100%" viewBox="0 0 102 104" version="1.1" xmlns="http://www.w3.org/2000/svg" xmlns:xlink="http://www.w3.org/1999/xlink" xml:space="preserve" xmlns:serif="http://www.serif.com/" style="fill-rule:evenodd;clip-rule:evenodd;stroke-linejoin:round;stroke-miterlimit:2;">
    <g transform="matrix(1,0,0,1,-16918.8,-1564.47)">
        <g transform="matrix(1,0,0,2.82931,16450.8,17.9504)">
            <g transform="matrix(1.72414,0,0,0.609385,462.815,545.389)">
                <path d="M17,2.58L3.58,16L17,16L17,2.58Z" style="fill:rgb(242,169,0);fill-rule:nonzero;"/>
            </g>
        </g>
        <g transform="matrix(1,0,0,2.82931,16450.8,17.9504)">
            <g transform="matrix(1.72414,0,0,0.609385,462.815,545.389)">
                <path d="M19,46L19,24C19.005,22.356 20.356,21.005 22,21L49,21L49,3C48.998,2.452 48.548,2.002 48,2L19,2L19,17C18.998,17.548 18.548,17.998 18,18L3,18L3,61C3.002,61.548 3.452,61.998 4,62L48,62C48.548,61.998 48.998,61.548 49,61L49,49L22,49C20.356,48.995 19.005,47.644 19,46Z" style="fill:rgb(242,169,0);fill-rule:nonzero;"/>
            </g>
        </g>
        <g transform="matrix(1,0,0,2.82931,16450.8,17.9504)">
            <g transform="matrix(1.72414,0,0,0.609385,462.815,545.389)">
                <path d="M51,54.8L57.96,49L51,49L51,54.8Z" style="fill:rgb(242,169,0);fill-rule:nonzero;"/>
            </g>
        </g>
        <g transform="matrix(1,0,0,2.82931,16450.8,17.9504)">
            <g transform="matrix(1.00725,0,0,0.36217,-16207.3,481.831)">
                <path d="M16655.7,217.289C16655.7,215.724 16654.4,214.454 16652.8,214.454L16589.6,214.454C16588,214.454 16586.7,215.724 16586.7,217.289L16586.7,252.119C16586.7,253.683 16588,254.954 16589.6,254.954L16652.8,254.954C16654.4,254.954 16655.7,253.683 16655.7,252.119L16655.7,217.289Z" style="fill:rgb(242,169,0);"/>
            </g>
        </g>
        <g transform="matrix(1,0,0,2.82931,16450.8,17.9504)">
            <g transform="matrix(0.728157,0,0,0.294651,-11614.7,477.912)">
                <g transform="matrix(31.1879,0,0,31.1879,16648,311.704)">
                    <path d="M0.412,0.012C0.361,0.012 0.313,0.003 0.269,-0.016C0.225,-0.035 0.187,-0.06 0.155,-0.093C0.123,-0.125 0.098,-0.163 0.08,-0.207C0.062,-0.251 0.053,-0.298 0.053,-0.348L0.053,-0.35C0.053,-0.4 0.062,-0.447 0.08,-0.491C0.098,-0.534 0.123,-0.573 0.155,-0.606C0.187,-0.639 0.225,-0.665 0.27,-0.684C0.315,-0.703 0.364,-0.712 0.418,-0.712C0.451,-0.712 0.481,-0.709 0.507,-0.704C0.535,-0.699 0.559,-0.691 0.581,-0.682C0.603,-0.673 0.623,-0.661 0.642,-0.648C0.661,-0.635 0.678,-0.62 0.694,-0.604L0.596,-0.491C0.569,-0.516 0.541,-0.535 0.513,-0.549C0.484,-0.563 0.452,-0.57 0.417,-0.57C0.388,-0.57 0.361,-0.564 0.336,-0.553C0.311,-0.542 0.289,-0.526 0.271,-0.506C0.253,-0.486 0.239,-0.463 0.229,-0.437C0.219,-0.41 0.214,-0.382 0.214,-0.352L0.214,-0.35C0.214,-0.32 0.219,-0.292 0.229,-0.265C0.239,-0.238 0.253,-0.215 0.271,-0.195C0.288,-0.175 0.31,-0.159 0.335,-0.148C0.36,-0.136 0.387,-0.13 0.417,-0.13C0.457,-0.13 0.491,-0.137 0.519,-0.152C0.546,-0.167 0.574,-0.187 0.601,-0.212L0.699,-0.113C0.681,-0.094 0.662,-0.076 0.643,-0.061C0.624,-0.046 0.603,-0.033 0.58,-0.021C0.557,-0.011 0.531,-0.002 0.504,0.003C0.477,0.009 0.446,0.012 0.412,0.012Z" style="fill:white;fill-rule:nonzero;"/>
                </g>
                <g transform="matrix(31.1879,0,0,31.1879,16672.1,311.704)">
                    <path d="M0.486,-0.293L0.393,-0.52L0.3,-0.293L0.486,-0.293ZM0.324,-0.705L0.466,-0.705L0.766,0L0.605,0L0.541,-0.157L0.245,-0.157L0.181,0L0.024,0L0.324,-0.705Z" style="fill:white;fill-rule:nonzero;"/>
                </g>
                <g transform="matrix(31.1879,0,0,31.1879,16697.9,311.704)">
                    <path d="M0.357,-0.139C0.388,-0.139 0.417,-0.144 0.443,-0.154C0.469,-0.164 0.491,-0.178 0.509,-0.197C0.528,-0.216 0.542,-0.238 0.553,-0.263C0.563,-0.288 0.568,-0.317 0.568,-0.348L0.568,-0.35C0.568,-0.381 0.563,-0.409 0.553,-0.435C0.542,-0.461 0.528,-0.483 0.509,-0.502C0.491,-0.521 0.469,-0.535 0.443,-0.546C0.417,-0.556 0.388,-0.561 0.357,-0.561L0.238,-0.561L0.238,-0.139L0.357,-0.139ZM0.084,-0.7L0.357,-0.7C0.412,-0.7 0.462,-0.691 0.507,-0.674C0.553,-0.656 0.593,-0.631 0.625,-0.6C0.659,-0.569 0.684,-0.532 0.702,-0.49C0.72,-0.447 0.729,-0.401 0.729,-0.352L0.729,-0.35C0.729,-0.301 0.72,-0.255 0.702,-0.212C0.684,-0.169 0.659,-0.132 0.625,-0.101C0.593,-0.07 0.553,-0.045 0.507,-0.027C0.462,-0.009 0.412,0 0.357,0L0.084,0L0.084,-0.7Z" style="fill:white;fill-rule:nonzero;"/>
                </g>
            </g>
        </g>
    </g>
</svg>
