<?xml version="1.0" encoding="UTF-8" standalone="no"?>
<!DOCTYPE svg PUBLIC "-//W3C//DTD SVG 1.1//EN" "http://www.w3.org/Graphics/SVG/1.1/DTD/svg11.dtd">
<svg width="100%" height="100%" viewBox="0 0 102 104" version="1.1" xmlns="http://www.w3.org/2000/svg" xmlns:xlink="http://www.w3.org/1999/xlink" xml:space="preserve" xmlns:serif="http://www.serif.com/" style="fill-rule:evenodd;clip-rule:evenodd;stroke-linejoin:round;stroke-miterlimit:2;">
    <g transform="matrix(1,0,0,1,-17091.3,-1048.81)">
        <g transform="matrix(1,0,0,2.82931,16450.8,17.9504)">
            <g transform="matrix(1.72414,0,0,0.609385,635.315,363.13)">
                <path d="M17,2.58L3.58,16L17,16L17,2.58Z" style="fill:rgb(19,152,180);fill-rule:nonzero;"/>
            </g>
        </g>
        <g transform="matrix(1,0,0,2.82931,16450.8,17.9504)">
            <g transform="matrix(1.72414,0,0,0.609385,635.315,363.13)">
                <path d="M19,46L19,24C19.005,22.356 20.356,21.005 22,21L49,21L49,3C48.998,2.452 48.548,2.002 48,2L19,2L19,17C18.998,17.548 18.548,17.998 18,18L3,18L3,61C3.002,61.548 3.452,61.998 4,62L48,62C48.548,61.998 48.998,61.548 49,61L49,49L22,49C20.356,48.995 19.005,47.644 19,46Z" style="fill:rgb(19,152,180);fill-rule:nonzero;"/>
            </g>
        </g>
        <g transform="matrix(1,0,0,2.82931,16450.8,17.9504)">
            <g transform="matrix(1.72414,0,0,0.609385,635.315,363.13)">
                <path d="M51,54.8L57.96,49L51,49L51,54.8Z" style="fill:rgb(19,152,180);fill-rule:nonzero;"/>
            </g>
        </g>
        <g transform="matrix(1,0,0,2.82931,16450.8,17.9504)">
            <g transform="matrix(1.00725,0,0,0.36217,-16034.8,299.572)">
                <path d="M16655.7,217.289C16655.7,215.724 16654.4,214.454 16652.8,214.454L16589.6,214.454C16588,214.454 16586.7,215.724 16586.7,217.289L16586.7,252.119C16586.7,253.683 16588,254.954 16589.6,254.954L16652.8,254.954C16654.4,254.954 16655.7,253.683 16655.7,252.119L16655.7,217.289Z" style="fill:rgb(19,152,180);"/>
            </g>
        </g>
        <g transform="matrix(1,0,0,2.82931,16450.8,17.9504)">
            <g transform="matrix(0.728157,0,0,0.294651,-11441.4,296.108)">
                <g transform="matrix(31.1879,0,0,31.1879,16648,311.704)">
                    <path d="M0.243,0.01C0.188,0.01 0.142,0 0.106,-0.021C0.069,-0.042 0.038,-0.066 0.014,-0.095L0.111,-0.203C0.131,-0.181 0.151,-0.164 0.172,-0.152C0.192,-0.139 0.214,-0.133 0.239,-0.133C0.268,-0.133 0.291,-0.142 0.308,-0.161C0.325,-0.179 0.333,-0.208 0.333,-0.249L0.333,-0.7L0.491,-0.7L0.491,-0.242C0.491,-0.2 0.485,-0.164 0.474,-0.133C0.463,-0.102 0.446,-0.076 0.425,-0.055C0.404,-0.034 0.378,-0.018 0.346,-0.007C0.316,0.004 0.281,0.01 0.243,0.01Z" style="fill:white;fill-rule:nonzero;"/>
                </g>
                <g transform="matrix(31.1879,0,0,31.1879,16666.7,311.704)">
                    <path d="M0.486,-0.293L0.393,-0.52L0.3,-0.293L0.486,-0.293ZM0.324,-0.705L0.466,-0.705L0.766,0L0.605,0L0.541,-0.157L0.245,-0.157L0.181,0L0.024,0L0.324,-0.705Z" style="fill:white;fill-rule:nonzero;"/>
                </g>
                <g transform="matrix(31.1879,0,0,31.1879,16692.5,311.704)">
                    <path d="M0.394,-0.36C0.432,-0.36 0.461,-0.369 0.482,-0.387C0.502,-0.405 0.512,-0.429 0.512,-0.459L0.512,-0.461C0.512,-0.494 0.501,-0.519 0.48,-0.536C0.459,-0.553 0.429,-0.561 0.391,-0.561L0.238,-0.561L0.238,-0.36L0.394,-0.36ZM0.084,-0.7L0.404,-0.7C0.493,-0.7 0.561,-0.676 0.608,-0.629C0.648,-0.589 0.668,-0.536 0.668,-0.469L0.668,-0.467C0.668,-0.41 0.654,-0.364 0.626,-0.329C0.599,-0.293 0.563,-0.267 0.518,-0.25L0.689,0L0.509,0L0.359,-0.224L0.357,-0.224L0.238,-0.224L0.238,0L0.084,0L0.084,-0.7Z" style="fill:white;fill-rule:nonzero;"/>
                </g>
            </g>
        </g>
    </g>
</svg>
