<?xml version="1.0" encoding="UTF-8" standalone="no"?>
<!DOCTYPE svg PUBLIC "-//W3C//DTD SVG 1.1//EN" "http://www.w3.org/Graphics/SVG/1.1/DTD/svg11.dtd">
<svg width="100%" height="100%" viewBox="0 0 102 104" version="1.1" xmlns="http://www.w3.org/2000/svg" xmlns:xlink="http://www.w3.org/1999/xlink" xml:space="preserve" xmlns:serif="http://www.serif.com/" style="fill-rule:evenodd;clip-rule:evenodd;stroke-linejoin:round;stroke-miterlimit:2;">
    <g transform="matrix(1,0,0,1,-17090.3,-1919.81)">
        <g transform="matrix(1,0,0,2.82931,16450.8,17.9504)">
            <g transform="matrix(1.72414,0,0,0.609385,634.315,670.979)">
                <path d="M17,2.58L3.58,16L17,16L17,2.58Z" style="fill:rgb(19,152,180);fill-rule:nonzero;"/>
            </g>
        </g>
        <g transform="matrix(1,0,0,2.82931,16450.8,17.9504)">
            <g transform="matrix(1.72414,0,0,0.609385,634.315,670.979)">
                <path d="M19,46L19,24C19.005,22.356 20.356,21.005 22,21L49,21L49,3C48.998,2.452 48.548,2.002 48,2L19,2L19,17C18.998,17.548 18.548,17.998 18,18L3,18L3,61C3.002,61.548 3.452,61.998 4,62L48,62C48.548,61.998 48.998,61.548 49,61L49,49L22,49C20.356,48.995 19.005,47.644 19,46Z" style="fill:rgb(19,152,180);fill-rule:nonzero;"/>
            </g>
        </g>
        <g transform="matrix(1,0,0,2.82931,16450.8,17.9504)">
            <g transform="matrix(1.72414,0,0,0.609385,634.315,670.979)">
                <path d="M51,54.8L57.96,49L51,49L51,54.8Z" style="fill:rgb(19,152,180);fill-rule:nonzero;"/>
            </g>
        </g>
        <g transform="matrix(1,0,0,2.82931,16450.8,17.9504)">
            <g transform="matrix(1.00725,0,0,0.36217,-16035.8,607.421)">
                <path d="M16655.7,217.289C16655.7,215.724 16654.4,214.454 16652.8,214.454L16589.6,214.454C16588,214.454 16586.7,215.724 16586.7,217.289L16586.7,252.119C16586.7,253.683 16588,254.954 16589.6,254.954L16652.8,254.954C16654.4,254.954 16655.7,253.683 16655.7,252.119L16655.7,217.289Z" style="fill:rgb(19,152,180);"/>
            </g>
        </g>
        <g transform="matrix(1,0,0,2.82931,16450.8,17.9504)">
            <g transform="matrix(0.728157,0,0,0.294651,-11442.4,603.957)">
                <g transform="matrix(31.1879,0,0,31.1879,16648,311.704)">
                    <path d="M0.275,-0.356L0.041,-0.7L0.221,-0.7L0.368,-0.473L0.516,-0.7L0.691,-0.7L0.457,-0.358L0.701,0L0.521,0L0.364,-0.24L0.206,0L0.031,0L0.275,-0.356Z" style="fill:white;fill-rule:nonzero;"/>
                </g>
                <g transform="matrix(31.1879,0,0,31.1879,16672,311.704)">
                    <path d="M0.36,-0.347C0.399,-0.347 0.429,-0.357 0.45,-0.378C0.471,-0.398 0.482,-0.423 0.482,-0.453L0.482,-0.455C0.482,-0.49 0.471,-0.516 0.449,-0.534C0.426,-0.552 0.396,-0.561 0.357,-0.561L0.238,-0.561L0.238,-0.347L0.36,-0.347ZM0.084,-0.7L0.37,-0.7C0.412,-0.7 0.45,-0.694 0.483,-0.683C0.516,-0.671 0.544,-0.654 0.567,-0.633C0.59,-0.612 0.607,-0.586 0.62,-0.557C0.632,-0.527 0.638,-0.494 0.638,-0.458L0.638,-0.456C0.638,-0.415 0.631,-0.38 0.616,-0.349C0.601,-0.318 0.581,-0.293 0.556,-0.272C0.53,-0.251 0.5,-0.236 0.466,-0.226C0.431,-0.215 0.394,-0.21 0.355,-0.21L0.238,-0.21L0.238,0L0.084,0L0.084,-0.7Z" style="fill:white;fill-rule:nonzero;"/>
                </g>
                <g transform="matrix(31.1879,0,0,31.1879,16693.9,311.704)">
                    <path d="M0.334,0.01C0.281,0.01 0.228,0.001 0.177,-0.018C0.126,-0.036 0.079,-0.064 0.037,-0.102L0.128,-0.211C0.16,-0.185 0.193,-0.164 0.227,-0.149C0.26,-0.134 0.297,-0.126 0.337,-0.126C0.369,-0.126 0.394,-0.132 0.411,-0.143C0.429,-0.155 0.438,-0.171 0.438,-0.192L0.438,-0.194C0.438,-0.204 0.436,-0.213 0.432,-0.221C0.429,-0.228 0.422,-0.235 0.411,-0.242C0.401,-0.249 0.387,-0.255 0.368,-0.262C0.35,-0.269 0.326,-0.276 0.297,-0.283C0.261,-0.292 0.229,-0.301 0.2,-0.312C0.172,-0.323 0.147,-0.336 0.127,-0.352C0.107,-0.367 0.092,-0.387 0.081,-0.41C0.07,-0.433 0.064,-0.462 0.064,-0.497L0.064,-0.499C0.064,-0.531 0.07,-0.56 0.082,-0.586C0.094,-0.611 0.111,-0.633 0.132,-0.652C0.154,-0.671 0.179,-0.685 0.209,-0.695C0.239,-0.705 0.272,-0.71 0.308,-0.71C0.359,-0.71 0.406,-0.702 0.45,-0.687C0.493,-0.672 0.532,-0.65 0.568,-0.621L0.488,-0.505C0.457,-0.526 0.426,-0.543 0.396,-0.556C0.366,-0.568 0.336,-0.574 0.306,-0.574C0.276,-0.574 0.254,-0.568 0.238,-0.557C0.224,-0.545 0.216,-0.53 0.216,-0.513L0.216,-0.511C0.216,-0.5 0.218,-0.49 0.223,-0.482C0.227,-0.473 0.235,-0.466 0.246,-0.459C0.257,-0.452 0.273,-0.446 0.293,-0.44C0.312,-0.434 0.337,-0.427 0.367,-0.419C0.403,-0.41 0.434,-0.399 0.462,-0.388C0.49,-0.376 0.513,-0.362 0.532,-0.345C0.551,-0.329 0.566,-0.31 0.575,-0.288C0.585,-0.266 0.59,-0.24 0.59,-0.209L0.59,-0.207C0.59,-0.172 0.584,-0.141 0.571,-0.115C0.559,-0.087 0.541,-0.065 0.518,-0.047C0.496,-0.028 0.469,-0.014 0.438,-0.005C0.407,0.005 0.372,0.01 0.334,0.01Z" style="fill:white;fill-rule:nonzero;"/>
                </g>
            </g>
        </g>
    </g>
</svg>
