<?xml version="1.0" encoding="UTF-8" standalone="no"?>
<!DOCTYPE svg PUBLIC "-//W3C//DTD SVG 1.1//EN" "http://www.w3.org/Graphics/SVG/1.1/DTD/svg11.dtd">
<svg width="100%" height="100%" viewBox="0 0 89 89" version="1.1" xmlns="http://www.w3.org/2000/svg" xmlns:xlink="http://www.w3.org/1999/xlink" xml:space="preserve" xmlns:serif="http://www.serif.com/" style="fill-rule:evenodd;clip-rule:evenodd;stroke-linejoin:round;stroke-miterlimit:2;">
    <g transform="matrix(4.16667,0,0,4.16667,-41852.1,-2213.33)">
        <g transform="matrix(1,0,0,1.29934,9589.02,3.50517)">
            <g transform="matrix(0.255164,0,0,0.187278,453.353,404.941)">
                <g>
                    <path d="M10.8,93.1L89.1,93.1C90.2,93.1 91.1,92.2 91.1,91.1L91.1,17C91.1,15.9 90.2,15 89.1,15L81.1,15L81.1,13.3C81.1,9.7 78.2,6.8 74.6,6.8C71,6.8 68.1,9.7 68.1,13.3L68.1,15L31.8,15L31.8,13.3C31.8,9.7 28.9,6.8 25.3,6.8C21.7,6.8 18.8,9.7 18.8,13.3L18.8,15L10.8,15C9.7,15 8.8,15.9 8.8,17L8.8,91.1C8.8,92.2 9.7,93.1 10.8,93.1ZM72.2,13.4C72.2,12 73.3,10.9 74.7,10.9C76.1,10.9 77.2,12 77.2,13.4L77.2,20.6C77.2,22 76.1,23.1 74.7,23.1C73.3,23.1 72.2,22 72.2,20.6L72.2,13.4ZM22.8,13.4C22.8,12 23.9,10.9 25.3,10.9C26.7,10.9 27.8,12 27.8,13.4L27.8,20.6C27.8,22 26.7,23.1 25.3,23.1C23.9,23.1 22.8,22 22.8,20.6L22.8,13.4ZM12.8,19L18.8,19L18.8,20.5C18.8,24.1 21.7,27 25.3,27C28.9,27 31.8,24.1 31.8,20.5L31.8,19L68.2,19L68.2,20.5C68.2,24.1 71.1,27 74.7,27C78.3,27 81.2,24.1 81.2,20.5L81.2,19L87.2,19L87.2,38.5L12.8,38.5L12.8,19ZM12.8,42.5L87.1,42.5L87.1,89.1L12.8,89.1L12.8,42.5Z" style="fill:rgb(89,91,148);fill-rule:nonzero;stroke:rgb(89,91,148);stroke-width:0.93px;"/>
                    <path d="M33.6,49.8L24.3,49.8C23.2,49.8 22.3,50.7 22.3,51.8L22.3,61.1C22.3,62.2 23.2,63.1 24.3,63.1L33.6,63.1C34.7,63.1 35.6,62.2 35.6,61.1L35.6,51.8C35.6,50.7 34.7,49.8 33.6,49.8Z" style="fill:rgb(89,91,148);fill-rule:nonzero;"/>
                    <path d="M54.7,49.8L45.4,49.8C44.3,49.8 43.4,50.7 43.4,51.8L43.4,61.1C43.4,62.2 44.3,63.1 45.4,63.1L54.7,63.1C55.8,63.1 56.7,62.2 56.7,61.1L56.7,51.8C56.7,50.7 55.8,49.8 54.7,49.8Z" style="fill:rgb(89,91,148);fill-rule:nonzero;"/>
                    <path d="M75.8,49.8L66.5,49.8C65.4,49.8 64.5,50.7 64.5,51.8L64.5,61.1C64.5,62.2 65.4,63.1 66.5,63.1L75.8,63.1C76.9,63.1 77.8,62.2 77.8,61.1L77.8,51.8C77.8,50.7 76.9,49.8 75.8,49.8Z" style="fill:rgb(89,91,148);fill-rule:nonzero;"/>
                    <path d="M33.6,68.5L24.3,68.5C23.2,68.5 22.3,69.4 22.3,70.5L22.3,79.8C22.3,80.9 23.2,81.8 24.3,81.8L33.6,81.8C34.7,81.8 35.6,80.9 35.6,79.8L35.6,70.5C35.6,69.4 34.7,68.5 33.6,68.5Z" style="fill:rgb(89,91,148);fill-rule:nonzero;"/>
                    <path d="M54.7,68.5L45.4,68.5C44.3,68.5 43.4,69.4 43.4,70.5L43.4,79.8C43.4,80.9 44.3,81.8 45.4,81.8L54.7,81.8C55.8,81.8 56.7,80.9 56.7,79.8L56.7,70.5C56.7,69.4 55.8,68.5 54.7,68.5Z" style="fill:rgb(89,91,148);fill-rule:nonzero;"/>
                    <path d="M75.8,68.5L73.745,68.5L66.5,68.5C65.4,68.5 64.5,69.4 64.5,70.5L64.5,79.8C64.5,80.9 65.4,81.8 66.5,81.8L75.8,81.8C76.9,81.8 77.8,80.9 77.8,79.8L77.8,70.5C77.8,69.4 76.9,68.5 75.8,68.5Z" style="fill:rgb(89,91,148);fill-rule:nonzero;"/>
                </g>
            </g>
        </g>
    </g>
</svg>
