<?xml version="1.0" encoding="UTF-8" standalone="no"?>
<!DOCTYPE svg PUBLIC "-//W3C//DTD SVG 1.1//EN" "http://www.w3.org/Graphics/SVG/1.1/DTD/svg11.dtd">
<svg width="100%" height="100%" viewBox="0 0 65 74" version="1.1" xmlns="http://www.w3.org/2000/svg" xmlns:xlink="http://www.w3.org/1999/xlink" xml:space="preserve" xmlns:serif="http://www.serif.com/" style="fill-rule:evenodd;clip-rule:evenodd;stroke-linejoin:round;stroke-miterlimit:1.5;">
    <g transform="matrix(1,0,0,1,-1484.78,-435.923)">
        <g transform="matrix(1,0,0,0.999711,1366.11,16.0903)">
            <g transform="matrix(1,0,0,1,-12,-4.15143)">
                <g transform="matrix(0.79866,0,0,0.798891,-1120.73,226.138)">
                    <path d="M1607.07,255.145L1641.42,274.645L1641.42,313.645L1607.07,333.145L1572.72,313.645L1572.72,274.645L1607.07,255.145Z" style="fill:rgb(255,163,0);stroke:rgb(101,56,25);stroke-opacity:0.31;stroke-width:3.74px;"/>
                </g>
                <g>
                    <g>
                        <g transform="matrix(0.798572,-0.0118702,0.0118668,0.798803,-1123.95,244.802)">
                            <path d="M1572.61,313.445L1582.08,308.354" style="fill:none;stroke:rgb(119,81,53);stroke-width:1.05px;stroke-linecap:round;"/>
                        </g>
                        <g transform="matrix(-0.472158,-0.644332,0.644146,-0.472295,730.544,1637.84)">
                            <path d="M1572.61,313.445L1582.08,308.354" style="fill:none;stroke:rgb(119,81,53);stroke-width:1.05px;stroke-linecap:round;"/>
                        </g>
                        <g transform="matrix(-0.472158,-0.644332,0.644146,-0.472295,683.948,1610.72)">
                            <path d="M1572.61,313.445L1582.08,308.354" style="fill:none;stroke:rgb(119,81,53);stroke-width:1.05px;stroke-linecap:round;"/>
                        </g>
                        <g transform="matrix(-0.380011,0.702663,-0.70246,-0.380121,980.492,-502.523)">
                            <path d="M1572.61,313.445L1582.08,308.354" style="fill:none;stroke:rgb(119,81,53);stroke-width:1.05px;stroke-linecap:round;"/>
                        </g>
                        <g transform="matrix(-0.380011,0.702663,-0.70246,-0.380121,980.492,-555.649)">
                            <path d="M1572.61,313.445L1582.08,308.354" style="fill:none;stroke:rgb(119,81,53);stroke-width:1.05px;stroke-linecap:round;"/>
                        </g>
                    </g>
                    <g transform="matrix(0.798572,-0.0118702,0.0118668,0.798803,-1077.17,218.223)">
                        <path d="M1572.61,313.445L1582.08,308.354" style="fill:none;stroke:rgb(119,81,53);stroke-width:1.05px;stroke-linecap:round;"/>
                    </g>
                </g>
                <g>
                    <g transform="matrix(0.5508,0,0,0.532594,-750.574,339.99)">
                        <ellipse cx="1608.23" cy="256.561" rx="7.25" ry="7.5" style="fill:rgb(222,124,0);stroke:rgb(119,81,53);stroke-width:1.55px;"/>
                    </g>
                    <g transform="matrix(0.5508,0,0,0.532594,-750.727,308.802)">
                        <ellipse cx="1608.23" cy="256.561" rx="7.25" ry="7.5" style="fill:rgb(222,124,0);stroke:rgb(119,81,53);stroke-width:1.55px;"/>
                    </g>
                    <g transform="matrix(0.5508,0,0,0.532594,-723.125,291.878)">
                        <ellipse cx="1608.23" cy="256.561" rx="7.25" ry="7.5" style="fill:rgb(222,124,0);stroke:rgb(119,81,53);stroke-width:1.55px;"/>
                    </g>
                    <g transform="matrix(0.5508,0,0,0.532594,-695.115,308.597)">
                        <ellipse cx="1608.23" cy="256.561" rx="7.25" ry="7.5" style="fill:rgb(222,124,0);stroke:rgb(119,81,53);stroke-width:1.55px;"/>
                    </g>
                    <g transform="matrix(0.5508,0,0,0.532594,-723.125,356.179)">
                        <ellipse cx="1608.23" cy="256.561" rx="7.25" ry="7.5" style="fill:rgb(222,124,0);stroke:rgb(119,81,53);stroke-width:1.55px;"/>
                    </g>
                    <g transform="matrix(0.5508,0,0,0.532594,-695.626,339.99)">
                        <ellipse cx="1608.23" cy="256.561" rx="7.25" ry="7.5" style="fill:rgb(222,124,0);stroke:rgb(119,81,53);stroke-width:1.55px;"/>
                    </g>
                </g>
            </g>
            <g transform="matrix(-0.177487,-0.122289,-0.122254,0.177539,170.328,452.784)">
                <path d="M118.202,19.366C115.902,19.366 114.102,21.166 114.102,23.466L114.4,34.9C104.1,17.6 85.4,6.5 64.5,6.5C32.5,6.5 6.5,32.5 6.5,64.6C6.5,96.7 32.5,122.6 64.5,122.6C96.5,122.6 122.5,96.6 122.5,64.6C122.5,62.3 120.7,60.5 118.4,60.5C116.1,60.5 114.3,62.3 114.3,64.6C114.3,92.1 91.9,114.5 64.4,114.5C36.9,114.5 14.6,92 14.6,64.5C14.6,37 37,14.6 64.5,14.6C84.2,14.6 101.8,26.1 109.8,43.7L95.61,44.229C93.31,44.229 91.51,46.029 91.51,48.329C91.51,50.629 93.31,52.429 95.61,52.429L118.4,51.9C120.7,51.9 122.5,50.1 122.5,47.8L122.202,23.366C122.202,21.166 120.402,19.366 118.202,19.366Z" style="fill:white;fill-rule:nonzero;"/>
            </g>
            <g transform="matrix(1.26383,0,0,1.26383,-40.1387,-122.491)">
                <g>
                    <g>
                        <g transform="matrix(7.25002,0,0,1.06482,-10843.1,-31.0574)">
                            <path d="M1516.48,458.762C1516.48,458.503 1516.44,458.293 1516.41,458.293L1516.38,458.293C1516.34,458.293 1516.31,458.503 1516.31,458.762L1516.31,462.903C1516.31,463.162 1516.34,463.372 1516.38,463.372L1516.41,463.372C1516.44,463.372 1516.48,463.162 1516.48,462.903L1516.48,458.762Z" style="fill:white;"/>
                        </g>
                        <g transform="matrix(3.60178,6.29387,-0.6708,0.384099,-5000.61,-9264.16)">
                            <path d="M1516.48,458.938C1516.48,458.582 1516.44,458.293 1516.41,458.293L1516.38,458.293C1516.34,458.293 1516.31,458.582 1516.31,458.938L1516.31,462.726C1516.31,463.083 1516.34,463.372 1516.38,463.372L1516.41,463.372C1516.44,463.372 1516.48,463.083 1516.48,462.726L1516.48,458.938Z" style="fill:white;"/>
                        </g>
                    </g>
                </g>
            </g>
        </g>
    </g>
</svg>
