<?xml version="1.0" encoding="UTF-8" standalone="no"?>
<!DOCTYPE svg PUBLIC "-//W3C//DTD SVG 1.1//EN" "http://www.w3.org/Graphics/SVG/1.1/DTD/svg11.dtd">
<svg width="100%" height="100%" viewBox="0 0 235 82" version="1.1" xmlns="http://www.w3.org/2000/svg" xmlns:xlink="http://www.w3.org/1999/xlink" xml:space="preserve" xmlns:serif="http://www.serif.com/" style="fill-rule:evenodd;clip-rule:evenodd;stroke-linejoin:round;stroke-miterlimit:2;">
    <g transform="matrix(4.16667,0,0,4.16667,-41434,-8258.84)">
        <g transform="matrix(1,0,0,1.17716,9583.69,1167.46)">
            <g transform="matrix(1,0,0,1,167.143,372.648)">
                <g transform="matrix(3.09652,0,0,2.83987,-30633.7,-4007.53)">
                    <path d="M9973.54,1526.28C9973.54,1524.82 9972.26,1523.64 9970.69,1523.64L9958.24,1523.64C9956.67,1523.64 9955.4,1524.82 9955.4,1526.28L9955.4,1526.86C9955.4,1528.32 9956.67,1529.5 9958.24,1529.5L9970.69,1529.5C9972.26,1529.5 9973.54,1528.32 9973.54,1526.86L9973.54,1526.28Z" style="fill:rgb(126,177,15);"/>
                </g>
                <g transform="matrix(1.48805,0,0,1.33353,-14717.2,-309.816)">
                    <ellipse cx="10049" cy="478.086" rx="5" ry="4.875" style="fill:white;"/>
                </g>
            </g>
        </g>
    </g>
</svg>
