<?xml version="1.0" encoding="UTF-8" standalone="no"?>
<!DOCTYPE svg PUBLIC "-//W3C//DTD SVG 1.1//EN" "http://www.w3.org/Graphics/SVG/1.1/DTD/svg11.dtd">
<svg width="100%" height="100%" viewBox="0 0 16 15" version="1.1" xmlns="http://www.w3.org/2000/svg" xmlns:xlink="http://www.w3.org/1999/xlink" xml:space="preserve" xmlns:serif="http://www.serif.com/" style="fill-rule:evenodd;clip-rule:evenodd;stroke-linejoin:round;stroke-miterlimit:2;">
    <g transform="matrix(1,0,0,1,-10516.8,-1620.64)">
        <g transform="matrix(1,0,0,1.17716,9583.69,1167.46)">
            <g transform="matrix(0.666667,0,0,0.566335,930.466,382.15)">
                <path d="M15,5C13.707,5 12.605,5.844 12.188,7L4,7L4,9L12.188,9C12.605,10.156 13.707,11 15,11C16.293,11 17.395,10.156 17.813,9L28,9L28,7L17.813,7C17.395,5.844 16.293,5 15,5ZM15,7C15.563,7 16,7.438 16,8C16,8.563 15.563,9 15,9C14.438,9 14,8.563 14,8C14,7.438 14.438,7 15,7ZM22,13C20.707,13 19.605,13.844 19.188,15L4,15L4,17L19.188,17C19.605,18.156 20.707,19 22,19C23.293,19 24.395,18.156 24.813,17L28,17L28,15L24.813,15C24.395,13.844 23.293,13 22,13ZM22,15C22.563,15 23,15.438 23,16C23,16.563 22.563,17 22,17C21.438,17 21,16.563 21,16C21,15.438 21.438,15 22,15ZM11,21C9.707,21 8.605,21.844 8.188,23L4,23L4,25L8.188,25C8.605,26.156 9.707,27 11,27C12.293,27 13.395,26.156 13.813,25L28,25L28,23L13.813,23C13.395,21.844 12.293,21 11,21ZM11,23C11.563,23 12,23.438 12,24C12,24.563 11.563,25 11,25C10.438,25 10,24.563 10,24C10,23.438 10.438,23 11,23Z" style="fill:rgb(89,91,148);fill-rule:nonzero;"/>
            </g>
        </g>
    </g>
</svg>
