<?xml version="1.0" encoding="UTF-8" standalone="no"?>
<!DOCTYPE svg PUBLIC "-//W3C//DTD SVG 1.1//EN" "http://www.w3.org/Graphics/SVG/1.1/DTD/svg11.dtd">
<svg width="100%" height="100%" viewBox="0 0 511 511" version="1.1" xmlns="http://www.w3.org/2000/svg" xmlns:xlink="http://www.w3.org/1999/xlink" xml:space="preserve" xmlns:serif="http://www.serif.com/" style="fill-rule:evenodd;clip-rule:evenodd;stroke-linecap:round;stroke-linejoin:round;stroke-miterlimit:1.5;">
    <g transform="matrix(1,0,0,1,-9738.71,-7283.5)">
        <g transform="matrix(1,0,0,1.07403,-39.2379,1994.21)">
            <g transform="matrix(0.92668,0,0,0.88258,1346.96,402.065)">
                <ellipse cx="9373.31" cy="5393.44" rx="261.867" ry="256" style="fill:none;stroke:rgb(111,158,176);stroke-width:26.46px;"/>
            </g>
        </g>
        <g transform="matrix(1,0,0,1.07403,-39.2379,1994.21)">
            <g transform="matrix(1,0,0,1,-995.556,-23.8355)">
                <g transform="matrix(0.958333,0,0,0.810636,878.763,-957.104)">
                    <path d="M10727.8,7468.38C10727.8,7460.1 10721.7,7453.37 10714.2,7453.37L10459.9,7453.37C10452.3,7453.37 10446.2,7460.1 10446.2,7468.38L10446.2,7652.77C10446.2,7661.05 10452.3,7667.77 10459.9,7667.77L10714.2,7667.77C10721.7,7667.77 10727.8,7661.05 10727.8,7652.77L10727.8,7468.38Z" style="fill:none;stroke:rgb(118,161,179);stroke-width:20.63px;"/>
                </g>
                <g transform="matrix(1,0,0,1,0,0.993148)">
                    <g transform="matrix(1.23108,0,0,0.94609,-2488.21,-1958.72)">
                        <ellipse cx="10956.1" cy="7533.91" rx="13.867" ry="16.533" style="fill:rgb(118,161,179);"/>
                    </g>
                    <g transform="matrix(1.23108,0,0,0.94609,-2440.75,-1987.52)">
                        <ellipse cx="10956.1" cy="7533.91" rx="13.867" ry="16.533" style="fill:rgb(118,161,179);"/>
                    </g>
                    <g transform="matrix(1.23108,0,0,0.94609,-2439.15,-1931.41)">
                        <ellipse cx="10956.1" cy="7533.91" rx="13.867" ry="16.533" style="fill:rgb(118,161,179);"/>
                    </g>
                    <g transform="matrix(1,0,0,0.931073,39.2379,-1856.76)">
                        <path d="M10967.1,7539.24L10998.6,7520.57" style="fill:none;stroke:rgb(118,161,179);stroke-width:11.99px;"/>
                    </g>
                    <g transform="matrix(-1,0,0,0.931073,22006.5,-1825.97)">
                        <path d="M10967.1,7539.24L10998.6,7520.57" style="fill:none;stroke:rgb(118,161,179);stroke-width:11.99px;"/>
                    </g>
                </g>
                <g transform="matrix(1,0,0,0.931073,446.171,-1858.74)">
                    <path d="M10547.4,7649.64L10623.6,7649.64C10625.2,7663.69 10628.5,7677.63 10634.8,7691.24C10637.2,7699.95 10638.6,7708.27 10623.6,7709.91L10547.4,7709.91C10535.3,7707.93 10533,7701.12 10536.7,7691.24C10542.3,7677.81 10545.8,7663.94 10547.4,7649.64Z" style="fill:rgb(118,161,179);"/>
                </g>
                <g transform="matrix(1,0,0,0.931073,28.0379,-1856.26)">
                    <ellipse cx="11079.6" cy="7631.24" rx="7.467" ry="8.267" style="fill:rgb(118,161,179);"/>
                </g>
                <g transform="matrix(1,0,0,0.931073,47.7712,-1856.26)">
                    <ellipse cx="11079.6" cy="7631.24" rx="7.467" ry="8.267" style="fill:rgb(118,161,179);"/>
                </g>
            </g>
        </g>
    </g>
</svg>
