<?xml version="1.0" encoding="UTF-8" standalone="no"?>
<!DOCTYPE svg PUBLIC "-//W3C//DTD SVG 1.1//EN" "http://www.w3.org/Graphics/SVG/1.1/DTD/svg11.dtd">
<svg width="100%" height="100%" viewBox="0 0 511 511" version="1.1" xmlns="http://www.w3.org/2000/svg" xmlns:xlink="http://www.w3.org/1999/xlink" xml:space="preserve" xmlns:serif="http://www.serif.com/" style="fill-rule:evenodd;clip-rule:evenodd;stroke-linecap:round;stroke-linejoin:round;stroke-miterlimit:1.5;">
    <g transform="matrix(1,0,0,1,-10895.7,-7276.39)">
        <g transform="matrix(1,0,0,1.07403,-39.2379,1994.21)">
            <g transform="matrix(0.92668,0,0,0.88258,2503.94,395.444)">
                <ellipse cx="9373.31" cy="5393.44" rx="261.867" ry="256" style="fill:none;stroke:rgb(111,158,176);stroke-width:26.46px;"/>
            </g>
        </g>
        <g transform="matrix(1,0,0,1.07403,-39.2379,1994.21)">
            <g transform="matrix(0.911894,0,0,0.843841,2344.4,-1853.23)">
                <path d="M9726.51,8177.1L9574.7,8177.1C9553.98,8177.1 9537.15,8193.92 9537.15,8214.64L9537.15,8389.86C9537.15,8410.58 9553.98,8427.41 9574.7,8427.41L9822.45,8427.41C9843.17,8427.41 9860,8410.58 9860,8389.86L9860,8214.64C9860,8193.92 9843.17,8177.1 9822.45,8177.1L9797.3,8177.1" style="fill:none;stroke:rgb(118,161,179);stroke-width:18.61px;"/>
            </g>
        </g>
        <g transform="matrix(1,0,0,1.07403,-39.2379,1994.21)">
            <g transform="matrix(0.911894,0,0,0.843841,1729.67,-1798.03)">
                <path d="M10288.1,8113.1L10288.1,8361.99" style="fill:none;stroke:rgb(118,161,179);stroke-width:16.13px;"/>
            </g>
        </g>
        <g transform="matrix(1,0,0,1.07403,-39.2379,1994.21)">
            <g transform="matrix(0.935477,0,0,0.896581,1485.01,-2231.88)">
                <ellipse cx="10252.4" cy="8229.72" rx="15.467" ry="14.933" style="fill:rgb(118,161,179);"/>
            </g>
        </g>
        <g transform="matrix(1,0,0,1.07403,-39.2379,1994.21)">
            <g transform="matrix(0.694776,0,0,0.794203,3952.05,-1393.35)">
                <path d="M10261.8,8278.32C10261.8,8275.63 10259.1,8273.45 10255.8,8273.45L10252.8,8273.45C10249.5,8273.45 10246.8,8275.63 10246.8,8278.32L10246.8,8341.12C10246.8,8343.81 10249.5,8345.99 10252.8,8345.99L10255.8,8345.99C10259.1,8345.99 10261.8,8343.81 10261.8,8341.12L10261.8,8278.32Z" style="fill:rgb(118,161,179);"/>
            </g>
        </g>
        <g transform="matrix(1,0,0,1.07403,-39.2379,1994.21)">
            <g transform="matrix(0.660336,0,0,0.629045,4306.91,-49.2131)">
                <path d="M10261.1,8138.4C10261.1,8135.62 10258.8,8133.36 10255.9,8133.36L10245.6,8133.36C10242.8,8133.36 10240.4,8135.62 10240.4,8138.4L10240.4,8149.66C10240.4,8152.44 10242.8,8154.7 10245.6,8154.7L10255.9,8154.7C10258.8,8154.7 10261.1,8152.44 10261.1,8149.66L10261.1,8138.4Z" style="fill:rgb(118,161,179);"/>
            </g>
        </g>
        <g transform="matrix(1,0,0,1.07403,-39.2379,1994.21)">
            <g transform="matrix(0.660336,0,0,0.629045,4306.91,-31.7676)">
                <path d="M10261.1,8138.4C10261.1,8135.62 10258.8,8133.36 10255.9,8133.36L10245.6,8133.36C10242.8,8133.36 10240.4,8135.62 10240.4,8138.4L10240.4,8149.66C10240.4,8152.44 10242.8,8154.7 10245.6,8154.7L10255.9,8154.7C10258.8,8154.7 10261.1,8152.44 10261.1,8149.66L10261.1,8138.4Z" style="fill:rgb(118,161,179);"/>
            </g>
        </g>
        <g transform="matrix(1,0,0,1.07403,-39.2379,1994.21)">
            <g transform="matrix(0.660336,0,0,0.629045,4306.91,-13.4274)">
                <path d="M10261.1,8138.4C10261.1,8135.62 10258.8,8133.36 10255.9,8133.36L10245.6,8133.36C10242.8,8133.36 10240.4,8135.62 10240.4,8138.4L10240.4,8149.66C10240.4,8152.44 10242.8,8154.7 10245.6,8154.7L10255.9,8154.7C10258.8,8154.7 10261.1,8152.44 10261.1,8149.66L10261.1,8138.4Z" style="fill:rgb(118,161,179);"/>
            </g>
        </g>
        <g transform="matrix(1,0,0,1.07403,-39.2379,1994.21)">
            <g transform="matrix(0.793231,0.470018,-0.545525,0.788374,6058.01,-4337.04)">
                <g transform="matrix(1,0,0,0.931073,39.432,-1856.76)">
                    <path d="M10416.8,8042.28C10416.8,8038.78 10414,8035.94 10410.5,8035.94L10403.9,8035.94C10400.4,8035.94 10397.6,8038.78 10397.6,8042.28L10397.6,8193.87C10403.9,8193.95 10416.8,8193.87 10416.8,8193.87L10416.8,8042.28Z" style="fill:rgb(118,161,179);"/>
                </g>
                <g transform="matrix(1,0,0,0.931073,39.2379,-1858.62)">
                    <path d="M10397.6,8199.02L10407.4,8221.06L10417.2,8199.02L10397.6,8199.02Z" style="fill:rgb(118,161,179);"/>
                </g>
            </g>
        </g>
        <g transform="matrix(1,0,0,1.07403,-39.2379,1994.21)">
            <g transform="matrix(0.681217,0,0,0.858912,4107.99,-1922.01)">
                <path d="M10418.1,8229.52C10418.1,8227.87 10416.3,8226.53 10414.1,8226.53L10314.2,8226.53C10312,8226.53 10310.2,8227.87 10310.2,8229.52L10310.2,8235.49C10310.2,8237.14 10312,8238.48 10314.2,8238.48L10414.1,8238.48C10416.3,8238.48 10418.1,8237.14 10418.1,8235.49L10418.1,8229.52Z" style="fill:rgb(118,161,179);"/>
            </g>
        </g>
    </g>
</svg>
