<?xml version="1.0" encoding="UTF-8" standalone="no"?>
<!DOCTYPE svg PUBLIC "-//W3C//DTD SVG 1.1//EN" "http://www.w3.org/Graphics/SVG/1.1/DTD/svg11.dtd">
<svg width="100%" height="100%" viewBox="0 0 21 22" version="1.1" xmlns="http://www.w3.org/2000/svg" xmlns:xlink="http://www.w3.org/1999/xlink" xml:space="preserve" xmlns:serif="http://www.serif.com/" style="fill-rule:evenodd;clip-rule:evenodd;stroke-linejoin:round;stroke-miterlimit:1.5;">
    <g transform="matrix(1,0,0,1,-7631.55,-155.183)">
        <g transform="matrix(1,0,0,0.999711,6875.01,1.15492)">
            <g transform="matrix(1.82658,0,0,1.95028,-1432.26,76.0687)">
                <g>
                    <g>
                        <g transform="matrix(0.547472,0,0,0.550693,-178.223,16.0203)">
                            <ellipse cx="2524.65" cy="53.454" rx="10" ry="9.625" style="fill:rgb(255,221,0);stroke:white;stroke-width:0.6px;"/>
                        </g>
                        <g transform="matrix(10.3162,0,0,8.95002,1201.53,49.0951)">
                            <path d="M0.213,0.001L0.278,0.001L0.278,-0.089L0.213,-0.089L0.213,0.001ZM0.216,-0.175L0.275,-0.175L0.275,-0.229C0.275,-0.257 0.284,-0.284 0.301,-0.308C0.311,-0.323 0.333,-0.345 0.367,-0.376L0.395,-0.4C0.42,-0.424 0.438,-0.448 0.45,-0.472C0.462,-0.496 0.468,-0.524 0.468,-0.555C0.468,-0.61 0.449,-0.654 0.412,-0.688C0.374,-0.721 0.324,-0.737 0.261,-0.737C0.189,-0.737 0.134,-0.718 0.097,-0.681C0.059,-0.643 0.039,-0.588 0.037,-0.515L0.105,-0.515C0.105,-0.57 0.118,-0.611 0.144,-0.638C0.169,-0.664 0.207,-0.678 0.259,-0.678C0.302,-0.678 0.337,-0.667 0.362,-0.645C0.388,-0.622 0.4,-0.59 0.4,-0.549C0.4,-0.523 0.393,-0.499 0.377,-0.477C0.367,-0.462 0.348,-0.442 0.32,-0.415L0.285,-0.38C0.26,-0.354 0.243,-0.334 0.233,-0.317C0.222,-0.295 0.216,-0.268 0.216,-0.236L0.216,-0.175Z" style="fill:rgb(83,76,37);fill-rule:nonzero;"/>
                        </g>
                    </g>
                </g>
            </g>
        </g>
    </g>
</svg>
