<?xml version="1.0" encoding="UTF-8" standalone="no"?>
<!DOCTYPE svg PUBLIC "-//W3C//DTD SVG 1.1//EN" "http://www.w3.org/Graphics/SVG/1.1/DTD/svg11.dtd">
<svg width="100%" height="100%" viewBox="0 0 25 35" version="1.1" xmlns="http://www.w3.org/2000/svg" xmlns:xlink="http://www.w3.org/1999/xlink" xml:space="preserve" xmlns:serif="http://www.serif.com/" style="fill-rule:evenodd;clip-rule:evenodd;stroke-linejoin:round;stroke-miterlimit:2;">
    <g transform="matrix(1,0,0,1,-1417.28,-277.667)">
        <g transform="matrix(1,0,0,1.06742,1392.97,1.23314)">
            <g transform="matrix(1.2227,0,0,1.2227,-10.6009,-49.6565)">
                <g transform="matrix(0.061317,0,0,0.0574443,24.5782,252.417)">
                    <path d="M335.954,169.698L335.954,58.679L144.918,58.679L144.918,169.699L335.954,169.699L335.954,169.698ZM159.918,73.679L320.954,73.679L320.954,154.699L159.918,154.699L159.918,73.679Z" style="fill:white;fill-rule:nonzero;"/>
                </g>
                <g transform="matrix(0.061317,0,0,0.0574443,24.5782,252.417)">
                    <rect x="175.939" y="89.519" width="128.993" height="15" style="fill:white;"/>
                </g>
                <g transform="matrix(0.061317,0,0,0.0574443,24.5782,252.417)">
                    <rect x="175.939" y="119.517" width="128.993" height="15" style="fill:white;"/>
                </g>
                <g transform="matrix(0.061317,0,0,0.0574443,24.5782,252.417)">
                    <path d="M391.076,0L104.224,0C82.542,0 64.902,17.64 64.902,39.323C64.902,39.323 64.905,371.835 64.905,371.837C64.905,393.517 82.543,411.155 104.223,411.155L127.136,411.155L127.136,455.978L183.033,455.978L183.033,411.155L391.07,411.155L391.076,0ZM376.076,332.506L111.724,332.506L111.724,15L376.076,15L376.076,332.506ZM96.724,16.189L96.724,333.221C90.582,334.401 84.841,337.032 79.902,340.936L79.902,39.323C79.902,28.528 86.973,19.358 96.724,16.189ZM104.223,396.155C90.814,396.155 79.905,385.246 79.905,371.837C79.905,365.332 82.434,359.22 87.027,354.628C91.619,350.036 97.726,347.507 104.223,347.507L127.136,347.507L127.136,396.155L104.223,396.155ZM142.136,440.978L142.136,347.506L168.033,347.506L168.033,440.978L142.136,440.978ZM376.071,396.155L183.034,396.155L183.034,347.507L376.071,347.507L376.071,396.155Z" style="fill:white;fill-rule:nonzero;"/>
                </g>
            </g>
        </g>
    </g>
</svg>
