<?xml version="1.0" encoding="UTF-8" standalone="no"?>
<!DOCTYPE svg PUBLIC "-//W3C//DTD SVG 1.1//EN" "http://www.w3.org/Graphics/SVG/1.1/DTD/svg11.dtd">
<svg width="100%" height="100%" viewBox="0 0 28 29" version="1.1" xmlns="http://www.w3.org/2000/svg" xmlns:xlink="http://www.w3.org/1999/xlink" xml:space="preserve" xmlns:serif="http://www.serif.com/" style="fill-rule:evenodd;clip-rule:evenodd;stroke-linejoin:round;stroke-miterlimit:2;">
    <g transform="matrix(1,0,0,1,-5206.57,-357.481)">
        <g transform="matrix(1,0,0,0.999711,4147.01,4.48826)">
            <g transform="matrix(0.699811,0,0,0.700216,1056.76,350.294)">
                <circle cx="24" cy="24" r="20" style="fill:rgb(89,91,148);"/>
            </g>
        </g>
        <g transform="matrix(1,0,0,0.999711,4147.01,4.48826)">
            <g transform="matrix(0.769792,0,0,0.770237,1055.08,348.613)">
                <circle cx="24" cy="24" r="16" style="fill:rgb(238,238,238);"/>
            </g>
        </g>
        <g transform="matrix(1,0,0,0.999711,4147.01,4.48826)">
            <g transform="matrix(0.422732,0,0,0.413426,-807.188,179.029)">
                <ellipse cx="4449.02" cy="454.906" rx="24.3" ry="24.8" style="fill:rgb(206,0,88);"/>
                <clipPath id="_clip1">
                    <ellipse cx="4449.02" cy="454.906" rx="24.3" ry="24.8"/>
                </clipPath>
                <g clip-path="url(#_clip1)">
                    <g transform="matrix(0.309757,0,0,0.316821,4266.83,430.813)">
                        <path d="M658.421,147.409C652.475,131.429 616.106,123.797 609.738,119.166C601.562,113.22 604.164,93.524 604.164,93.524L590.785,93.876L577.407,93.524C577.407,93.524 580.008,113.22 571.832,119.166C565.464,123.797 529.095,131.429 523.149,147.409C517.203,163.389 514.974,177.511 514.974,177.511L666.597,177.511C666.597,177.511 664.367,163.389 658.421,147.409Z" style="fill:rgb(246,150,124);fill-rule:nonzero;"/>
                        <path d="M574.928,115.496C581.191,114.856 587.486,113.586 592.939,110.536C596.914,108.313 600.493,105.688 603.815,102.733C603.618,97.672 604.164,93.524 604.164,93.524L590.785,93.876L577.407,93.524C577.407,93.524 579.258,107.542 574.928,115.496Z" style="fill:rgb(243,138,113);fill-rule:nonzero;"/>
                        <path d="M659.476,147.188C653.684,131.622 619.241,123.92 611.171,119.21C604.798,122.916 597.025,125.101 588.628,125.101C581.331,125.101 574.505,123.452 568.659,120.59C557.348,125.404 528.469,133.054 523.209,147.188C517.219,163.285 514.974,177.511 514.974,177.511L667.711,177.511C667.711,177.511 665.465,163.285 659.476,147.188Z" style="fill:rgb(67,133,132);fill-rule:nonzero;"/>
                        <path d="M568.659,120.59C568.659,120.59 573.53,117.429 574.641,112.54L606.863,110.984C606.863,110.984 607.975,117.429 612.419,119.873C612.419,119.873 588.898,133.306 568.659,120.59Z" style="fill:rgb(88,176,171);fill-rule:nonzero;"/>
                        <path d="M568.32,62.819C566.16,56.116 561.043,57.668 560.564,57.829C560.062,57.888 554.773,58.673 555.687,65.657C556.606,72.682 560.682,76.489 564.505,75.371C568.438,74.747 570.494,69.562 568.32,62.819Z" style="fill:rgb(243,138,113);fill-rule:nonzero;"/>
                        <path d="M612.579,62.819C614.74,56.116 619.856,57.668 620.336,57.829C620.838,57.888 626.126,58.673 625.213,65.657C624.294,72.682 620.217,76.489 616.395,75.371C612.462,74.747 610.406,69.562 612.579,62.819Z" style="fill:rgb(243,138,113);fill-rule:nonzero;"/>
                        <path d="M617.04,52.274C614.362,22.886 592.021,24.532 589.914,24.754C587.807,24.532 565.466,22.886 562.788,52.274C560.095,81.836 573.262,101.143 589.914,100.081C606.566,101.143 619.734,81.836 617.04,52.274Z" style="fill:rgb(246,150,124);fill-rule:nonzero;"/>
                        <path d="M593.107,62.308C593.267,62.78 593.388,63.257 593.52,63.733C593.657,64.209 593.767,64.688 593.879,65.167C594.098,66.125 594.286,67.089 594.457,68.054C594.616,69.021 594.779,69.988 594.896,70.961C595.029,71.932 595.129,72.908 595.213,73.886L595.234,74.139L595.078,74.273C594.489,74.777 593.887,75.268 593.279,75.752C592.651,76.216 592.05,76.707 591.397,77.145C591.87,76.517 592.393,75.943 592.89,75.342C593.406,74.76 593.929,74.186 594.464,73.625L594.33,74.012C594.136,73.05 593.959,72.085 593.814,71.116C593.654,70.149 593.539,69.175 593.421,68.202C593.314,67.228 593.225,66.25 593.167,65.269C593.141,64.777 593.112,64.287 593.11,63.792C593.103,63.298 593.086,62.806 593.107,62.308Z" style="fill:rgb(193,110,91);fill-rule:nonzero;"/>
                        <path d="M576.979,81.47L603.492,81.192C603.492,81.192 592.889,91.626 576.979,81.47Z" style="fill:white;fill-rule:nonzero;"/>
                        <path d="M583.777,86.795C583.777,86.795 584.061,86.856 584.547,86.989C585.033,87.101 585.722,87.373 586.557,87.5C586.973,87.574 587.419,87.652 587.883,87.751C588.34,87.876 588.863,87.837 589.375,87.91C589.893,87.956 590.426,88.026 590.97,87.98C591.513,87.958 592.065,87.961 592.613,87.921C593.156,87.835 593.7,87.748 594.235,87.664C594.78,87.616 595.271,87.386 595.773,87.261C596.266,87.104 596.768,87.009 597.188,86.778C597.62,86.576 598.038,86.397 598.428,86.232C598.829,86.086 599.142,85.859 599.444,85.691C599.743,85.514 600.003,85.36 600.218,85.233C600.652,84.982 600.914,84.846 600.914,84.846C600.914,84.846 600.719,85.055 600.353,85.404C600.167,85.577 599.941,85.788 599.682,86.03C599.419,86.268 599.143,86.576 598.755,86.783C598.385,87.018 597.981,87.273 597.543,87.531C597.122,87.824 596.613,87.994 596.094,88.189C595.833,88.287 595.569,88.386 595.301,88.486L594.895,88.636L594.466,88.715C593.891,88.819 593.306,88.924 592.721,89.03C592.13,89.061 591.535,89.046 590.953,89.055C590.367,89.096 589.804,88.961 589.257,88.882C588.713,88.778 588.181,88.746 587.699,88.559C587.213,88.407 586.76,88.248 586.346,88.102C585.92,87.978 585.574,87.79 585.268,87.618C584.958,87.452 584.689,87.308 584.467,87.189C584.024,86.947 583.777,86.795 583.777,86.795Z" style="fill:rgb(193,110,91);fill-rule:nonzero;"/>
                        <path d="M576.015,62.75C576.015,64.964 576.836,66.758 577.849,66.758C578.863,66.758 579.684,64.964 579.684,62.75C579.684,60.537 578.863,58.743 577.849,58.743C576.836,58.743 576.015,60.537 576.015,62.75Z" style="fill:rgb(45,35,52);fill-rule:nonzero;"/>
                        <path d="M601.229,62.75C601.229,64.964 602.05,66.758 603.063,66.758C604.077,66.758 604.898,64.964 604.898,62.75C604.898,60.537 604.077,58.743 603.063,58.743C602.05,58.743 601.229,60.537 601.229,62.75Z" style="fill:rgb(45,35,52);fill-rule:nonzero;"/>
                        <path d="M571.51,56.193C571.51,56.193 571.829,55.232 572.821,54.117C573.082,53.857 573.344,53.537 573.689,53.277C574.017,52.995 574.39,52.726 574.811,52.49C575.211,52.222 575.7,52.056 576.174,51.858C576.681,51.734 577.187,51.553 577.734,51.542C578.004,51.527 578.274,51.507 578.543,51.504C578.813,51.529 579.08,51.57 579.344,51.607C579.881,51.641 580.359,51.888 580.829,52.048C581.297,52.222 581.67,52.534 582.047,52.765C582.434,52.989 582.68,53.343 582.953,53.6C583.217,53.869 583.45,54.117 583.596,54.388C583.763,54.641 583.889,54.874 583.994,55.06C584.199,55.438 584.295,55.66 584.295,55.66C584.295,55.66 584.061,55.554 583.69,55.356C583.507,55.256 583.284,55.14 583.048,54.992C582.82,54.833 582.516,54.727 582.22,54.58C581.909,54.46 581.619,54.248 581.261,54.163C580.909,54.071 580.575,53.89 580.201,53.831C579.826,53.784 579.466,53.64 579.078,53.656C578.886,53.646 578.695,53.639 578.503,53.616L577.922,53.664C577.532,53.648 577.148,53.797 576.757,53.838C576.38,53.971 575.984,54.03 575.621,54.191C575.249,54.32 574.888,54.464 574.549,54.624C574.198,54.761 573.885,54.941 573.572,55.076C573.269,55.236 572.991,55.383 572.745,55.513C572.494,55.651 572.275,55.771 572.095,55.869C571.723,56.075 571.51,56.193 571.51,56.193Z" style="fill:rgb(45,35,52);fill-rule:nonzero;"/>
                        <path d="M596.902,56.193C596.902,56.193 597.221,55.232 598.213,54.117C598.474,53.857 598.735,53.537 599.08,53.277C599.408,52.995 599.782,52.726 600.203,52.49C600.603,52.222 601.091,52.056 601.565,51.858C602.073,51.734 602.579,51.553 603.126,51.542C603.396,51.527 603.666,51.507 603.935,51.504C604.204,51.529 604.472,51.57 604.736,51.607C605.273,51.641 605.75,51.888 606.22,52.048C606.688,52.222 607.062,52.534 607.439,52.765C607.825,52.989 608.071,53.343 608.344,53.6C608.608,53.869 608.841,54.117 608.988,54.388C609.154,54.641 609.28,54.874 609.385,55.06C609.591,55.438 609.686,55.66 609.686,55.66C609.686,55.66 609.453,55.554 609.082,55.356C608.899,55.256 608.675,55.14 608.44,54.992C608.212,54.833 607.908,54.727 607.612,54.58C607.3,54.46 607.01,54.248 606.652,54.163C606.301,54.071 605.966,53.89 605.593,53.831C605.218,53.784 604.857,53.64 604.469,53.656C604.278,53.646 604.086,53.639 603.895,53.616L603.314,53.664C602.923,53.648 602.539,53.797 602.148,53.838C601.772,53.971 601.376,54.03 601.013,54.191C600.641,54.32 600.28,54.464 599.94,54.624C599.59,54.761 599.277,54.941 598.964,55.076C598.661,55.236 598.383,55.383 598.137,55.513C597.885,55.651 597.666,55.771 597.486,55.869C597.114,56.075 596.902,56.193 596.902,56.193Z" style="fill:rgb(45,35,52);fill-rule:nonzero;"/>
                        <path d="M617.197,68.429C624.863,49.429 621.53,26.762 621.53,26.762C624.197,17.762 620.863,9.429 620.863,9.429C620.863,15.096 615.863,22.096 615.863,22.096C620.197,15.429 616.53,2.096 616.53,2.096C613.863,7.096 602.197,15.762 602.197,15.762L607.863,7.429C594.53,6.762 586.197,13.429 586.197,13.429L592.53,6.429C574.53,8.096 567.197,20.429 567.197,20.429C548.863,28.096 562.863,69.762 562.863,69.762L564.863,69.762L564.863,54.429C564.863,54.429 571.53,51.096 571.197,34.096C571.197,34.096 587.863,39.429 607.863,34.096C607.863,34.096 605.53,51.429 615.197,53.096L614.864,68.762L617.197,68.429Z" style="fill:rgb(253,214,186);fill-rule:nonzero;"/>
                        <path d="M564.863,69.762L562.863,69.762C562.863,69.762 557.748,54.537 557.751,40.8C557.753,31.812 559.946,23.461 567.197,20.429C567.197,20.429 567.48,19.967 568.047,19.222C569.708,23.766 572.463,27.716 576.811,30.736C580.016,32.963 583.573,34.839 587.232,36.419C577.609,36.131 571.197,34.096 571.197,34.096C571.205,34.511 571.209,34.917 571.209,35.316C571.209,51.256 564.863,54.429 564.863,54.429L564.863,69.762Z" style="fill:rgb(243,199,171);fill-rule:nonzero;"/>
                    </g>
                </g>
            </g>
        </g>
    </g>
</svg>
