<?xml version="1.0" encoding="UTF-8" standalone="no"?>
<!DOCTYPE svg PUBLIC "-//W3C//DTD SVG 1.1//EN" "http://www.w3.org/Graphics/SVG/1.1/DTD/svg11.dtd">
<svg width="100%" height="100%" viewBox="0 0 28 29" version="1.1" xmlns="http://www.w3.org/2000/svg" xmlns:xlink="http://www.w3.org/1999/xlink" xml:space="preserve" xmlns:serif="http://www.serif.com/" style="fill-rule:evenodd;clip-rule:evenodd;stroke-linejoin:round;stroke-miterlimit:2;">
    <g transform="matrix(1,0,0,1,-5170.32,-358.981)">
        <g transform="matrix(1,0,0,0.999711,4147.01,4.48826)">
            <g transform="matrix(0.699811,0,0,0.700216,1020.51,351.794)">
                <circle cx="24" cy="24" r="20" style="fill:rgb(89,91,148);"/>
            </g>
        </g>
        <g transform="matrix(1,0,0,0.999711,4147.01,4.48826)">
            <g transform="matrix(0.769792,0,0,0.770237,1018.83,350.114)">
                <circle cx="24" cy="24" r="16" style="fill:rgb(238,238,238);"/>
            </g>
        </g>
        <g transform="matrix(1,0,0,0.999711,4147.01,4.48826)">
            <g transform="matrix(0.422732,0,0,0.413426,-843.438,180.53)">
                <ellipse cx="4449.02" cy="454.906" rx="24.3" ry="24.8" style="fill:rgb(242,205,0);"/>
                <clipPath id="_clip1">
                    <ellipse cx="4449.02" cy="454.906" rx="24.3" ry="24.8"/>
                </clipPath>
                <g clip-path="url(#_clip1)">
                    <g transform="matrix(0.309755,0,0,0.316819,4373.2,370.999)">
                        <path d="M314.981,358.899C309.035,342.919 272.667,335.287 266.298,330.655C258.122,324.709 260.724,305.013 260.724,305.013L247.345,305.365L233.967,305.013C233.967,305.013 236.568,324.709 228.393,330.655C222.024,335.287 185.656,342.919 179.71,358.899C173.764,374.879 171.534,389 171.534,389L323.157,389C323.157,389 320.927,374.879 314.981,358.899Z" style="fill:rgb(164,85,83);fill-rule:nonzero;"/>
                        <path d="M231.488,326.985C237.751,326.345 244.047,325.076 249.5,322.026C253.474,319.803 257.053,317.178 260.375,314.223C260.178,309.161 260.724,305.013 260.724,305.013L247.345,305.365L233.967,305.013C233.967,305.013 235.818,319.031 231.488,326.985Z" style="fill:rgb(126,62,58);fill-rule:nonzero;"/>
                        <path d="M316.036,358.677C313.859,352.827 307.634,348.087 300.283,344.2C287.154,353.16 268.551,358.762 247.903,358.762C227.257,358.762 208.654,353.161 195.526,344.202C188.175,348.089 181.947,352.826 179.77,358.677C173.78,374.775 171.534,389 171.534,389L324.272,389C324.272,389 322.026,374.775 316.036,358.677Z" style="fill:rgb(67,133,132);fill-rule:nonzero;"/>
                        <clipPath id="_clip2">
                            <path d="M316.036,358.677C313.859,352.827 307.634,348.087 300.283,344.2C287.154,353.16 268.551,358.762 247.903,358.762C227.257,358.762 208.654,353.161 195.526,344.202C188.175,348.089 181.947,352.826 179.77,358.677C173.78,374.775 171.534,389 171.534,389L324.272,389C324.272,389 322.026,374.775 316.036,358.677Z" clip-rule="nonzero"/>
                        </clipPath>
                        <g clip-path="url(#_clip2)">
                            <path d="M173.53,353.539L320.863,353.539L320.863,352.653L173.53,352.653" style="fill:white;fill-rule:nonzero;"/>
                            <path d="M173.53,384.205L324.863,384.205L324.863,383.32L173.53,383.32" style="fill:white;fill-rule:nonzero;"/>
                            <path d="M166.863,369.337L330.197,369.337L330.197,368.451L166.863,368.451" style="fill:white;fill-rule:nonzero;"/>
                        </g>
                        <path d="M224.881,274.308C222.72,267.605 217.604,269.157 217.125,269.318C216.622,269.377 211.334,270.162 212.247,277.146C213.166,284.171 217.243,287.978 221.065,286.86C224.998,286.236 227.055,281.051 224.881,274.308Z" style="fill:rgb(126,62,58);fill-rule:nonzero;"/>
                        <path d="M269.14,274.308C271.3,267.605 276.417,269.157 276.896,269.318C277.398,269.377 282.687,270.162 281.773,277.146C280.854,284.171 276.778,287.978 272.956,286.86C269.022,286.236 266.966,281.051 269.14,274.308Z" style="fill:rgb(126,62,58);fill-rule:nonzero;"/>
                        <path d="M273.6,263.763C270.923,234.375 248.582,236.021 246.475,236.243C244.368,236.021 222.026,234.375 219.349,263.763C216.655,293.325 229.823,312.632 246.475,311.57C263.127,312.632 276.294,293.325 273.6,263.763Z" style="fill:rgb(164,85,83);fill-rule:nonzero;"/>
                        <path d="M249.667,273.796C249.827,274.269 249.949,274.746 250.08,275.222C250.217,275.698 250.327,276.177 250.44,276.656C250.659,277.614 250.847,278.578 251.017,279.543C251.176,280.51 251.339,281.477 251.456,282.45C251.589,283.421 251.689,284.397 251.773,285.375L251.795,285.628L251.638,285.762C251.049,286.266 250.448,286.757 249.839,287.241C249.212,287.705 248.61,288.196 247.958,288.634C248.43,288.006 248.953,287.432 249.451,286.831C249.966,286.249 250.49,285.675 251.025,285.114L250.89,285.501C250.697,284.539 250.519,283.574 250.375,282.605C250.214,281.638 250.1,280.664 249.982,279.691C249.875,278.717 249.785,277.739 249.727,276.758C249.701,276.267 249.672,275.776 249.671,275.281C249.664,274.787 249.646,274.295 249.667,273.796Z" style="fill:rgb(126,62,58);fill-rule:nonzero;"/>
                        <path d="M233.539,292.959L260.052,292.681C260.052,292.681 249.45,303.115 233.539,292.959Z" style="fill:white;fill-rule:nonzero;"/>
                        <path d="M240.338,298.284C240.338,298.284 240.621,298.345 241.108,298.478C241.593,298.59 242.283,298.862 243.118,298.989C243.533,299.063 243.979,299.141 244.443,299.24C244.9,299.365 245.423,299.326 245.935,299.399C246.454,299.445 246.986,299.515 247.53,299.469C248.073,299.447 248.626,299.45 249.173,299.41C249.717,299.324 250.26,299.237 250.795,299.153C251.34,299.105 251.831,298.875 252.334,298.75C252.826,298.592 253.328,298.498 253.749,298.267C254.181,298.065 254.599,297.886 254.988,297.721C255.389,297.575 255.702,297.348 256.004,297.18C256.303,297.003 256.564,296.849 256.778,296.722C257.213,296.47 257.475,296.335 257.475,296.335C257.475,296.335 257.278,296.544 256.913,296.893C256.726,297.066 256.502,297.277 256.243,297.519C255.979,297.757 255.703,298.065 255.315,298.272C254.946,298.507 254.541,298.762 254.104,299.02C253.683,299.313 253.174,299.482 252.654,299.678C252.394,299.776 252.129,299.875 251.861,299.975L251.455,300.125L251.026,300.204C250.451,300.308 249.866,300.413 249.282,300.519C248.69,300.55 248.096,300.535 247.513,300.544C246.927,300.585 246.364,300.45 245.818,300.371C245.274,300.267 244.742,300.235 244.26,300.048C243.773,299.896 243.32,299.737 242.906,299.591C242.481,299.466 242.134,299.279 241.828,299.107C241.519,298.941 241.249,298.797 241.027,298.678C240.585,298.436 240.338,298.284 240.338,298.284Z" style="fill:rgb(126,62,58);fill-rule:nonzero;"/>
                        <path d="M232.575,274.239C232.575,276.453 233.397,278.247 234.41,278.247C235.423,278.247 236.245,276.453 236.245,274.239C236.245,272.026 235.423,270.232 234.41,270.232C233.397,270.232 232.575,272.026 232.575,274.239Z" style="fill:rgb(45,35,52);fill-rule:nonzero;"/>
                        <path d="M257.789,274.239C257.789,276.453 258.611,278.247 259.624,278.247C260.637,278.247 261.459,276.453 261.459,274.239C261.459,272.026 260.637,270.232 259.624,270.232C258.611,270.232 257.789,272.026 257.789,274.239Z" style="fill:rgb(45,35,52);fill-rule:nonzero;"/>
                        <path d="M228.071,267.682C228.071,267.682 228.389,266.721 229.382,265.606C229.643,265.346 229.904,265.026 230.249,264.766C230.577,264.484 230.951,264.215 231.372,263.979C231.772,263.711 232.26,263.545 232.734,263.347C233.242,263.223 233.747,263.042 234.295,263.031C234.565,263.016 234.835,262.996 235.103,262.993C235.373,263.018 235.64,263.059 235.905,263.096C236.442,263.13 236.919,263.377 237.389,263.537C237.857,263.711 238.231,264.023 238.607,264.254C238.994,264.478 239.24,264.832 239.513,265.089C239.777,265.358 240.01,265.606 240.157,265.877C240.323,266.13 240.449,266.363 240.554,266.549C240.76,266.927 240.855,267.149 240.855,267.149C240.855,267.149 240.622,267.042 240.251,266.845C240.068,266.745 239.844,266.629 239.609,266.481C239.38,266.322 239.077,266.216 238.781,266.069C238.469,265.949 238.179,265.737 237.821,265.652C237.47,265.559 237.135,265.379 236.761,265.32C236.387,265.273 236.026,265.129 235.638,265.145C235.447,265.135 235.255,265.128 235.064,265.105L234.483,265.153C234.092,265.137 233.708,265.286 233.317,265.327C232.94,265.46 232.545,265.519 232.182,265.68C231.809,265.809 231.449,265.953 231.109,266.113C230.759,266.25 230.446,266.43 230.133,266.565C229.83,266.725 229.552,266.872 229.305,267.002C229.054,267.14 228.835,267.26 228.655,267.358C228.283,267.564 228.071,267.682 228.071,267.682Z" style="fill:rgb(45,35,52);fill-rule:nonzero;"/>
                        <path d="M253.462,267.682C253.462,267.682 253.781,266.721 254.773,265.606C255.034,265.346 255.295,265.026 255.641,264.766C255.969,264.484 256.342,264.215 256.763,263.979C257.163,263.711 257.652,263.545 258.126,263.347C258.633,263.223 259.139,263.042 259.686,263.031C259.956,263.016 260.226,262.996 260.495,262.993C260.764,263.018 261.032,263.059 261.295,263.096C261.833,263.13 262.311,263.377 262.78,263.537C263.249,263.711 263.622,264.023 263.999,264.254C264.386,264.478 264.632,264.832 264.905,265.089C265.169,265.358 265.401,265.606 265.548,265.877C265.715,266.13 265.841,266.363 265.946,266.549C266.151,266.927 266.247,267.149 266.247,267.149C266.247,267.149 266.013,267.042 265.642,266.845C265.459,266.745 265.236,266.629 265,266.481C264.772,266.322 264.468,266.216 264.172,266.069C263.861,265.949 263.571,265.737 263.213,265.652C262.861,265.559 262.526,265.379 262.153,265.32C261.778,265.273 261.418,265.129 261.028,265.145C260.838,265.135 260.647,265.128 260.454,265.105L259.874,265.153C259.483,265.137 259.1,265.286 258.709,265.327C258.332,265.46 257.936,265.519 257.573,265.68C257.2,265.809 256.84,265.953 256.501,266.113C256.15,266.25 255.837,266.43 255.524,266.565C255.221,266.725 254.943,266.872 254.697,267.002C254.446,267.14 254.227,267.26 254.046,267.358C253.675,267.564 253.462,267.682 253.462,267.682Z" style="fill:rgb(45,35,52);fill-rule:nonzero;"/>
                        <path d="M233.536,230.894C233.536,230.894 217.21,225.297 220.009,217.834C222.807,210.37 235.401,220.632 235.401,220.632C235.401,220.632 214.411,202.441 224.673,197.31C234.935,192.179 246.596,217.367 246.596,217.367C246.596,217.367 226.072,192.179 244.73,188.914C263.388,185.649 249.861,222.498 249.861,222.498C249.861,222.498 256.392,196.377 267.12,200.109C281.341,205.055 255.459,225.763 255.459,225.763C255.459,225.763 271.318,212.236 274.583,215.035C277.848,217.834 270.052,224.892 261.523,230.894C248.928,239.757 248.928,239.29 233.536,230.894Z" style="fill:rgb(45,35,52);fill-rule:nonzero;"/>
                        <path d="M233.53,233.429C233.53,238.123 239.35,241.929 246.53,241.929C253.71,241.929 259.53,238.123 259.53,233.429C259.53,228.734 253.71,224.929 246.53,224.929C239.35,224.929 233.53,228.734 233.53,233.429Z" style="fill:rgb(248,158,100);fill-rule:nonzero;"/>
                        <path d="M245.909,245.323C245.909,245.323 246.03,257.429 221.53,264.429C221.53,264.429 223.03,282.929 219.53,281.929C216.03,280.929 200.254,228.644 246.293,230.258L245.909,245.323Z" style="fill:rgb(45,35,52);fill-rule:nonzero;"/>
                        <path d="M245.909,245.323C245.909,245.323 246.315,257.429 270.815,264.429C270.815,264.429 269.315,282.929 272.815,281.929C276.315,280.929 291.641,229.49 246.293,230.258L245.909,245.323Z" style="fill:rgb(45,35,52);fill-rule:nonzero;"/>
                        <path d="M253.444,256.27C245.858,247.239 244.781,241.085 247.926,231.083C247.605,231.03 247.298,230.96 247.01,230.863C243.622,239.219 240.911,253.216 255.256,261.886C255.256,261.886 262.682,267.269 253.444,256.27Z" style="fill:rgb(45,35,52);fill-rule:nonzero;"/>
                        <path d="M247.03,255.429C243.399,246.486 244.111,241.423 249.079,234.426C248.843,234.304 248.621,234.172 248.421,234.025C243.679,239.677 238.042,249.893 247.027,260.257C247.027,260.257 251.452,266.32 247.03,255.429Z" style="fill:rgb(45,35,52);fill-rule:nonzero;"/>
                    </g>
                </g>
            </g>
        </g>
    </g>
</svg>
